"Resource/UI/HudAmmoWeapons.res"
{
	"HudWeaponAmmoBG"
	{
		"ControlName"	"CTFImagePanel"
		"fieldName"		"HudWeaponAmmoBG"
		"xpos"			"-8888"
		"ypos"			"-8888"
		"zpos"			"1"
		"wide"			"0"
		"tall"			"0"
		"visible"		"0"
		"enabled"		"0"
		"image"			"../hud/ammo_blue_bg"
		"scaleImage"	"1"	
		"teambg_2"		"../hud/ammo_red_bg"
		"teambg_2_lodef"	"../hud/ammo_red_bg_lodef"
		"teambg_3"		"../hud/ammo_blue_bg"
		"teambg_3_lodef"	"../hud/ammo_blue_bg_lodef"			
	}
	"HudWeaponLowAmmoImage"
	{
		"ControlName"	"ImagePanel"
		"fieldName"		"HudWeaponLowAmmoImage"
		"xpos"			"-8888"
		"ypos"			"-8888"
		"zpos"			"0"
		"wide"			"0"
		"tall"			"0"
		"visible"		"0"
		"enabled"		"0"
		"image"			"../hud/ammo_red_bg"
		"scaleImage"	"1"	
		"teambg_2"		"../hud/ammo_red_bg"
		"teambg_2_lodef"	"../hud/ammo_red_bg_lodef"
		"teambg_3"		"../hud/ammo_blue_bg"
		"teambg_3_lodef"	"../hud/ammo_blue_bg_lodef"			
	}
	"AmmoInClip"
	{
		"ControlName"	"CExLabel"
		"fieldName"		"AmmoInClip"
		"font"			"M0refont48"
		"fgcolor"		"255 255 255 255"
		"xpos"			"c100"
		"ypos"			"c60"
		"zpos"			"5"
		"wide"			"78"
		"tall"			"150"
		"visible"		"0"
		"enabled"		"1"
		"textAlignment"	"east"	
		"labelText"		"%Ammo%"
		
	}		
	"AmmoInClipShadow"
	{
		"ControlName"	"CExLabel"
		"fieldName"		"AmmoInClipShadow"
		"font"			"M0refont48"
		"fgcolor"		"0 0 0 255"
		"xpos"			"c102"
		"ypos"			"c62"
		"zpos"			"5"
		"wide"			"78"
		"tall"			"150"
		"visible"		"0"
		"enabled"		"1"
		"textAlignment"	"east"	
		"labelText"		"%Ammo%"
		
	}	
	"AmmoInReserve"
	{
		"ControlName"	"CExLabel"
		"fieldName"		"AmmoInReserve"
		"font"			"m0refont24"
		"fgcolor"		"255 255 255 255"
		"xpos"			"c180"
		"ypos"			"c130"
		"zpos"			"7"
		"wide"			"40"
		"tall"			"27"
		"visible"		"0"
		"enabled"		"1"
		"textAlignment"	"west"		
		"labelText"		"%AmmoInReserve%"
	}		
	"AmmoInReserveShadow"
	{
		"ControlName"	"CExLabel"
		"fieldName"		"AmmoInReserveshadow"
		"font"			"m0refont24"
		"fgcolor"		"0 0 0 255"
		"xpos"			"c181"
		"ypos"			"c131"
		"zpos"			"7"
		"wide"			"40"
		"tall"			"27"
		"visible"		"0"
		"enabled"		"1"
		"textAlignment"	"west"		
		"labelText"		"%AmmoInReserve%"
	}	
							
	"AmmoNoClip"
	{
		"ControlName"	"CExLabel"
		"fieldName"		"AmmonoClip"
		"font"			"m0refont48"
		"fgcolor"		"255 255 255 255"
		"xpos"			"c100"
		"ypos"    		"c60"
		"zpos"			"5"
		"wide"			"150"
		"tall"			"150"
		"visible"		"0"
		"enabled"		"1"
		"textAlignment"	"center"	
		"labelText"		"%Ammo%"
	}	
	"AmmoNoClipShadow"
	{
		"ControlName"	"CExLabel"
		"fieldName"		"AmmonoClipshadow"
		"font"			"m0refont48"
		"fgcolor"		"0 0 0 255"
		"xpos"			"c102"
		"ypos"			"c62"
		"zpos"			"5"
		"wide"			"150"
		"tall"			"150"
		"visible"		"0"
		"enabled"		"1"
		"textAlignment"	"center"	
		"labelText"		"%Ammo%"
		
	}									
}
