"Resource/UI/HudMenuTauntSelection.res"
{
        "MainBackground"       
        {
                "ControlName"   "ImagePanel"
                "fieldName"             "MainBackground"
                "xpos"                  "0"
                "ypos"                  "20"
                "zpos"                  "0"
                "wide"                  "1000"
                "tall"                  "800"
                "visible"               "1"
                "enabled"               "1"
                "scaleImage"    "1"    
                "icon"                  "hud_menu_bg"
                "fillcolor"             "0 0 0 100"
        }
 
        "Divider"
        {
                "ControlName"   "ImagePanel"
                "fieldName"             "Divider"
                "xpos"                  "8"
                "ypos"                  "65"
                "zpos"                  "1"
                "wide"                  "0"
                "tall"                  "0"
                "fillcolor"             "255 222 208 255"
        }
 
        "IcoReelIcon"
        {
                "ControlName"   "CIconPanel"
                "fieldName"             "IcoReelIcon"
                "xpos"                  "10"
                "ypos"                  "-3"
                "zpos"                  "1"
                "wide"                  "0"
                "tall"                  "0"
                "visible"               "1"
                "enabled"               "0"
                "scaleImage"    "0"    
                "icon"                  "hud_taunt_menu_icon"
                "iconColor"             "255 255 255 255"
        }
       
        "TitleLabel"
        {      
                "ControlName"   "CExLabel"
                "fieldName"             "TitleLabel"
                "font"                  "CerbeticaBold32"
                "xpos"                  "18"                    // align me to the left edge of the first selection
                "ypos"                  "0"
                "zpos"                  "3"
                "wide"                  "360"
                "tall"                  "38"
                "autoResize"    "0"
                "pinCorner"             "0"
                "visible"               "1"
                "enabled"               "1"
                "labelText"             "#Hud_Menu_Taunt_Title"
                "textAlignment" "Left"
                "dulltext"              "0"
                "brighttext"    "0"
        }
       
        "TitleLabelDropshadow"
        {      
                "ControlName"   "CExLabel"
                "fieldName"             "TitleLabelDropshadow"
                "font"                  "CerbeticaBold32"
                "fgcolor"               "TransparentBlack"
                "xpos"                  "20"                    // align me to the left edge of the first selection
                "ypos"                  "2"
                "zpos"                  "3"
                "wide"                  "360"
                "tall"                  "38"
                "autoResize"    "0"
                "pinCorner"             "0"
                "visible"               "1"
                "enabled"               "1"
                "labelText"             "#Hud_Menu_Taunt_Title"
                "textAlignment" "Left"
                "dulltext"              "1"
                "brighttext"    "0"
        }
 
        "WeaponTauntLabel"
        {      
                "ControlName"   "CExLabel"
                "fieldName"             "WeaponTauntLabel"
                "font"                  "Default"
                "xpos"                  "0"
                "ypos"                  "24"
                "zpos"                  "2"
                "wide"                  "470"
                "tall"                  "13"
                "autoResize"    "0"
                "pinCorner"             "0"
                "visible"               "1"
                "enabled"               "1"
                "labelText"             "#Hud_Menu_Taunt_Weapon"
                "textAlignment" "center"
                "dulltext"              "0"
                "brighttext"    "0"
        }
       
        "CancelLabel"
        {      
                "ControlName"   "CExLabel"
                "fieldName"             "CancelLabel"
                "font"                  "Default"
                "xpos"                  "250"
                "ypos"                  "49"
                "zpos"                  "2"
                "wide"                  "200"
                "tall"                  "13"
                "autoResize"    "0"
                "pinCorner"             "0"
                "visible"               "1"
                "enabled"               "1"
                "labelText"             "#Hud_Menu_Taunt_Cancel"
                "textAlignment" "east"
                "dulltext"              "0"
                "brighttext"    "0"
        }
 
        "TauntModelPanel1"
        {
                "ControlName"   "CItemModelPanel"
                "fieldName"             "TauntModelPanel1"
                "xpos"                  "17"
                "ypos"                  "45"
                "zpos"                  "100"
                "wide"                  "50"
                "tall"                  "40"
                "visible"               "1"
                "bgcolor_override"              "0 0 0 0"
                "noitem_textcolor"              "117 107 94 255"
                "PaintBackgroundType"   "0"
                "paintborder"   "1"
                       
                "model_ypos"    "5"
                "model_tall"    "38"
                "text_ypos"             "46"
                "text_center"   "1"
                "text_forcesize"        "3"
                "model_only"            "1"
                       
                "attriblabel"
                {
                        "font"                  "ItemFontAttribLarge"
                        "visible"               "1"
                }
                       
                "itemmodelpanel"
                {
                        "use_item_rendertarget" "0"
                        "allow_rot"                             "0"
                }
        }
 
        "NumberBg1"    
        {
                "ControlName"   "CIconPanel"
                "fieldName"             "NumberBg1"
                "xpos"                  "34"
                "ypos"                  "140"
                "zpos"                  "4"
                "wide"                  "15"
                "tall"                  "15"
                "visible"               "1"
                "enabled"               "1"
                "scaleImage"    "1"    
                "icon"                  "ico_key_blank"
                "iconColor"             "255 255 255 255"
        }
       
        "NumberLabel1"
        {      
                "ControlName"   "CExLabel"
                "fieldName"             "NumberLabel1"
                "font"                  "CerbeticaBold20"
                "fgcolor"               "TanLight"
                "ypos"                  "95"
                "xpos"                  "34"
                "zpos"                  "5"
                "wide"                  "15"
                "tall"                  "15"
                "autoResize"    "0"
                "pinCorner"             "0"
                "visible"               "1"
                "enabled"               "1"
                "labelText"             "1"
                "textAlignment" "Center"
                "dulltext"              "1"
                "brighttext"    "0"
        }
       
                "NumberLabel1BG"
        {      
                "ControlName"   "CExLabel"
                "fieldName"             "NumberLabel1BG"
                "font"                  "CerbeticaBold20"
                "fgcolor"               "TransparentBlack"
                "ypos"                  "97"
                "xpos"                  "36"
                "zpos"                  "5"
                "wide"                  "15"
                "tall"                  "15"
                "autoResize"    "0"
                "pinCorner"             "0"
                "visible"               "1"
                "enabled"               "1"
                "labelText"             "1"
                "textAlignment" "Center"
                "dulltext"              "1"
                "brighttext"    "0"
        }
 
        "TauntModelPanel2"
        {
                "ControlName"   "CItemModelPanel"
                "fieldName"             "TauntModelPanel2"
                "xpos"                  "73"
                "ypos"                  "45"
                "zpos"                  "100"
                "wide"                  "50"
                "tall"                  "40"
                "visible"               "1"
                "bgcolor_override"              "0 0 0 0"
                "noitem_textcolor"              "117 107 94 255"
                "PaintBackgroundType"   "0"
                "paintborder"   "1"
 
                "model_ypos"    "5"
                "model_tall"    "38"
                "text_ypos"             "46"
                "text_center"   "1"
                "text_forcesize"        "3"
                "model_only"            "1"
                       
                "attriblabel"
                {
                        "font"                  "ItemFontAttribLarge"
                        "visible"               "1"
                }
                       
                "itemmodelpanel"
                {
                        "use_item_rendertarget" "0"
                        "allow_rot"                             "0"
                }
        }
 
        "NumberBg2"
        {
                "ControlName"   "CIconPanel"
                "fieldName"             "NumberBg2"
                "xpos"                  "87"
                "ypos"                  "140"
                "zpos"                  "4"
                "wide"                  "15"
                "tall"                  "15"
                "visible"               "0"
                "enabled"               "0"
                "scaleImage"    "1"    
                "icon"                  "ico_key_blank"
                "iconColor"             "255 255 255 255"
        }
       
        "NumberLabel2"
        {      
                "ControlName"   "CExLabel"
                "fieldName"             "NumberLabel2"
                "font"                  "CerbeticaBold20"
                "fgcolor"               "TanLight"
                "ypos"                  "95"
                "xpos"                  "89"
                "zpos"                  "5"
                "wide"                  "15"
                "tall"                  "15"
                "autoResize"    "0"
                "pinCorner"             "0"
                "visible"               "1"
                "enabled"               "1"
                "labelText"             "2"
                "textAlignment" "Center"
                "dulltext"              "1"
                "brighttext"    "0"
        }
       
                        "NumberLabel2BG"
        {      
                "ControlName"   "CExLabel"
                "fieldName"             "NumberLabel2BG"
                "font"                  "CerbeticaBold20"
                "fgcolor"               "TransparentBlack"
                "ypos"                  "97"
                "xpos"                  "91"
                "zpos"                  "5"
                "wide"                  "15"
                "tall"                  "15"
                "autoResize"    "0"
                "pinCorner"             "0"
                "visible"               "1"
                "enabled"               "1"
                "labelText"             "2"
                "textAlignment" "Center"
                "dulltext"              "1"
                "brighttext"    "0"
        }
 
        "TauntModelPanel3"
        {
                "ControlName"   "CItemModelPanel"
                "fieldName"             "TauntModelPanel3"
                "xpos"                  "127"
                "ypos"                  "45"
                "zpos"                  "100"
                "wide"                  "50"
                "tall"                  "40"
                "visible"               "1"
                "bgcolor_override"              "0 0 0 0"
                "noitem_textcolor"              "117 107 94 255"
                "PaintBackgroundType"   "0"
                "paintborder"   "1"
                       
                "model_ypos"    "5"
                "model_tall"    "38"
                "text_ypos"             "46"
                "text_center"   "1"
                "text_forcesize"        "3"
                "model_only"            "1"
                       
                "attriblabel"
                {
                        "font"                  "ItemFontAttribLarge"
                        "visible"               "0"
                }
                       
                "itemmodelpanel"
                {
                        "use_item_rendertarget" "0"
                        "allow_rot"                             "0"
                }
        }
       
        "NumberBg3"
        {
                "ControlName"   "CIconPanel"
                "fieldName"             "NumberBg3"
                "xpos"                  "142"
                "ypos"                  "140"
                "zpos"                  "4"
                "wide"                  "15"
                "tall"                  "15"
                "visible"               "0"
                "enabled"               "0"
                "scaleImage"    "1"    
                "icon"                  "ico_key_blank"
                "iconColor"             "255 255 255 255"
        }
       
        "NumberLabel3"
        {      
                "ControlName"   "CExLabel"
                "fieldName"             "NumberLabel3"
                "font"                  "CerbeticaBold20"
                "fgcolor"               "TanLight"
                "xpos"                  "144"
                "ypos"                  "95"
                "zpos"                  "5"
                "wide"                  "15"
                "tall"                  "15"
                "autoResize"    "0"
                "pinCorner"             "0"
                "visible"               "1"
                "enabled"               "1"
                "labelText"             "3"
                "textAlignment" "Center"
                "dulltext"              "1"
                "brighttext"    "0"
        }
       
       
        "NumberLabel3BG"
        {      
                "ControlName"   "CExLabel"
                "fieldName"             "NumberLabel3BG"
                "font"                  "CerbeticaBold20"
                "fgcolor"               "TransparentBlack"
                "ypos"                  "97"
                "xpos"                  "146"
                "zpos"                  "5"
                "wide"                  "15"
                "tall"                  "15"
                "autoResize"    "0"
                "pinCorner"             "0"
                "visible"               "1"
                "enabled"               "1"
                "labelText"             "3"
                "textAlignment" "Center"
                "dulltext"              "1"
                "brighttext"    "0"
        }
 
        "TauntModelPanel4"
        {
                "ControlName"   "CItemModelPanel"
                "fieldName"             "TauntModelPanel4"
                "xpos"                  "182"
                "ypos"                  "45"
                "zpos"                  "100"
                "wide"                  "50"
                "tall"                  "40"
                "visible"               "1"
                "bgcolor_override"              "0 0 0 0"
                "noitem_textcolor"              "117 107 94 255"
                "PaintBackgroundType"   "0"
                "paintborder"   "1"
                       
                "model_ypos"    "5"
                "model_tall"    "38"
                "text_ypos"             "46"
                "text_center"   "1"
                "text_forcesize"        "3"
                "model_only"            "1"
                       
                "attriblabel"
                {
                        "font"                  "ItemFontAttribLarge"
                        "visible"               "0"
                }
                       
                "itemmodelpanel"
                {
                        "use_item_rendertarget" "0"
                        "allow_rot"                             "0"
                }
        }
 
        "NumberBg4"
        {
                "ControlName"   "CIconPanel"
                "fieldName"             "NumberBg4"
                "xpos"                  "197"
                "ypos"                  "140"
                "zpos"                  "4"
                "wide"                  "15"
                "tall"                  "15"
                "visible"               "0"
                "enabled"               "0"
                "scaleImage"    "1"    
                "icon"                  "ico_key_blank"
                "iconColor"             "255 255 255 255"
        }
       
        "NumberLabel4"
        {      
                "ControlName"   "CExLabel"
                "fieldName"             "NumberLabel4"
                "font"                  "CerbeticaBold20"
                "fgcolor"               "TanLight"
                "xpos"                  "200"
                "ypos"                  "95"
                "zpos"                  "5"
                "wide"                  "15"
                "tall"                  "15"
                "autoResize"    "0"
                "pinCorner"             "0"
                "visible"               "1"
                "enabled"               "1"
                "labelText"             "4"
                "textAlignment" "Center"
                "dulltext"              "1"
                "brighttext"    "0"
        }
       
                "NumberLabel4BG"
        {      
                "ControlName"   "CExLabel"
                "fieldName"             "NumberLabel4BG"
                "font"                  "CerbeticaBold20"
                "fgcolor"               "TransparentBlack"
                "ypos"                  "97"
                "xpos"                  "202"
                "zpos"                  "5"
                "wide"                  "15"
                "tall"                  "15"
                "autoResize"    "0"
                "pinCorner"             "0"
                "visible"               "1"
                "enabled"               "1"
                "labelText"             "4"
                "textAlignment" "Center"
                "dulltext"              "1"
                "brighttext"    "0"
        }
 
        "TauntModelPanel5"
        {
                "ControlName"   "CItemModelPanel"
                "fieldName"             "TauntModelPanel5"
                "xpos"                  "237"
                "ypos"                  "45"
                "zpos"                  "100"
                "wide"                  "50"
                "tall"                  "40"
                "visible"               "1"
                "bgcolor_override"              "0 0 0 0"
                "noitem_textcolor"              "117 107 94 255"
                "PaintBackgroundType"   "0"
                "paintborder"   "1"
                       
                "model_ypos"    "5"
                "model_tall"    "38"
                "text_ypos"             "46"
                "text_center"   "1"
                "text_forcesize"        "3"
                "model_only"            "1"
                       
                "attriblabel"
                {
                        "font"                  "ItemFontAttribLarge"
                        "visible"               "0"
                }
                       
                "itemmodelpanel"
                {
                        "use_item_rendertarget" "0"
                        "allow_rot"                             "0"
                }
        }
 
        "NumberBg5"
        {
                "ControlName"   "CIconPanel"
                "fieldName"             "NumberBg5"
                "xpos"                  "252"
                "ypos"                  "140"
                "zpos"                  "4"
                "wide"                  "15"
                "tall"                  "15"
                "visible"               "0"
                "enabled"               "0"
                "scaleImage"    "1"    
                "icon"                  "ico_key_blank"
                "iconColor"             "255 255 255 255"
        }
       
        "NumberLabel5"
        {      
                "ControlName"   "CExLabel"
                "fieldName"             "NumberLabel5"
                "font"                  "CerbeticaBold20"
                "fgcolor"               "TanLight"
                "ypos"                  "95"
                "xpos"                  "256"
                "zpos"                  "5"
                "wide"                  "15"
                "tall"                  "15"
                "autoResize"    "0"
                "pinCorner"             "0"
                "visible"               "1"
                "enabled"               "1"
                "labelText"             "5"
                "textAlignment" "Center"
                "dulltext"              "1"
                "brighttext"    "0"
        }
 
        "NumberLabel5BG"
        {      
                "ControlName"   "CExLabel"
                "fieldName"             "NumberLabel5BG"
                "font"                  "CerbeticaBold20"
                "fgcolor"               "TransparentBlack"
                "ypos"                  "97"
                "xpos"                  "258"
                "zpos"                  "5"
                "wide"                  "15"
                "tall"                  "15"
                "autoResize"    "0"
                "pinCorner"             "0"
                "visible"               "1"
                "enabled"               "1"
                "labelText"             "5"
                "textAlignment" "Center"
                "dulltext"              "1"
                "brighttext"    "0"
        }
       
        "TauntModelPanel6"
        {
                "ControlName"   "CItemModelPanel"
                "fieldName"             "TauntModelPanel6"
                "xpos"                  "292"
                "ypos"                  "45"
                "zpos"                  "100"
                "wide"                  "50"
                "tall"                  "40"
                "visible"               "1"
                "bgcolor_override"              "0 0 0 0"
                "noitem_textcolor"              "117 107 94 255"
                "PaintBackgroundType"   "0"
                "paintborder"   "1"
                       
                "model_ypos"    "5"
                "model_tall"    "38"
                "text_ypos"             "46"
                "text_center"   "1"
                "text_forcesize"        "3"
                "model_only"            "1"
                       
                "attriblabel"
                {
                        "font"                  "ItemFontAttribLarge"
                        "visible"               "0"
                }
                       
                "itemmodelpanel"
                {
                        "use_item_rendertarget" "0"
                        "allow_rot"                             "0"
                }
        }
 
        "NumberBg6"
        {
                "ControlName"   "CIconPanel"
                "fieldName"             "NumberBg6"
                "xpos"                  "307"
                "ypos"                  "140"
                "zpos"                  "4"
                "wide"                  "15"
                "tall"                  "15"
                "visible"               "0"
                "enabled"               "0"
                "scaleImage"    "1"    
                "icon"                  "ico_key_blank"
                "iconColor"             "255 255 255 255"
        }
       
 
       
        "NumberLabel6"
        {      
                "ControlName"   "CExLabel"
                "fieldName"             "NumberLabel6"
                "font"                  "CerbeticaBold20"
                "fgcolor"               "TanLight"
                "xpos"                  "310"
                "ypos"                  "95"
                "zpos"                  "5"
                "wide"                  "15"
                "tall"                  "15"
                "autoResize"    "0"
                "pinCorner"             "0"
                "visible"               "1"
                "enabled"               "1"
                "labelText"             "6"
                "textAlignment" "Center"
                "dulltext"              "1"
                "brighttext"    "0"
        }
       
                        "NumberLabel6BG"
        {      
                "ControlName"   "CExLabel"
                "fieldName"             "NumberLabel6BG"
                "font"                  "CerbeticaBold20"
                "fgcolor"               "TransparentBlack"
                "ypos"                  "97"
                "xpos"                  "312"
                "zpos"                  "5"
                "wide"                  "15"
                "tall"                  "15"
                "autoResize"    "0"
                "pinCorner"             "0"
                "visible"               "1"
                "enabled"               "1"
                "labelText"             "6"
                "textAlignment" "Center"
                "dulltext"              "1"
                "brighttext"    "0"
        }
 
        "TauntModelPanel7"
        {
                "ControlName"   "CItemModelPanel"
                "fieldName"             "TauntModelPanel7"
                "xpos"                  "347"
                "ypos"                  "45"
                "zpos"                  "100"
                "wide"                  "50"
                "tall"                  "40"
                "visible"               "1"
                "bgcolor_override"              "0 0 0 0"
                "noitem_textcolor"              "117 107 94 255"
                "PaintBackgroundType"   "0"
                "paintborder"   "1"
                       
                "model_ypos"    "5"
                "model_tall"    "38"
                "text_ypos"             "46"
                "text_center"   "1"
                "text_forcesize"        "3"
                "model_only"            "1"
                       
                "attriblabel"
                {
                        "font"                  "ItemFontAttribLarge"
                        "visible"               "0"
                }
                       
                "itemmodelpanel"
                {
                        "use_item_rendertarget" "0"
                        "allow_rot"                             "0"
                }
        }
 
        "NumberBg7"
        {
                "ControlName"   "CIconPanel"
                "fieldName"             "NumberBg7"
                "xpos"                  "362"
                "ypos"                  "140"
                "zpos"                  "4"
                "wide"                  "15"
                "tall"                  "15"
                "visible"               "0"
                "enabled"               "0"
                "scaleImage"    "1"    
                "icon"                  "ico_key_blank"
                "iconColor"             "255 255 255 255"
        }
       
        "NumberLabel7"
        {      
                "ControlName"   "CExLabel"
                "fieldName"             "NumberLabel7"
                "font"                  "CerbeticaBold20"
                "fgcolor"               "TanLight"
                "xpos"                  "364"
                "ypos"                  "95"
                "zpos"                  "5"
                "wide"                  "15"
                "tall"                  "15"
                "autoResize"    "0"
                "pinCorner"             "0"
                "visible"               "1"
                "enabled"               "1"
                "labelText"             "7"
                "textAlignment" "Center"
                "dulltext"              "1"
                "brighttext"    "0"
        }
       
                                "NumberLabel7BG"
        {      
                "ControlName"   "CExLabel"
                "fieldName"             "NumberLabel7BG"
                "font"                  "CerbeticaBold20"
                "fgcolor"               "TransparentBlack"
                "ypos"                  "97"
                "xpos"                  "366"
                "zpos"                  "5"
                "wide"                  "15"
                "tall"                  "15"
                "autoResize"    "0"
                "pinCorner"             "0"
                "visible"               "1"
                "enabled"               "1"
                "labelText"             "7"
                "textAlignment" "Center"
                "dulltext"              "1"
                "brighttext"    "0"
        }
 
        "TauntModelPanel8"
        {
                "ControlName"   "CItemModelPanel"
                "fieldName"             "TauntModelPanel8"
                "xpos"                  "402"
                "ypos"                  "45"
                "zpos"                  "100"
                "wide"                  "50"
                "tall"                  "40"
                "visible"               "1"
                "bgcolor_override"              "0 0 0 0"
                "noitem_textcolor"              "117 107 94 255"
                "PaintBackgroundType"   "0"
                "paintborder"   "1"
                       
                "model_ypos"    "5"
                "model_tall"    "38"
                "text_ypos"             "46"
                "text_center"   "1"
                "text_forcesize"        "3"
                "model_only"            "1"
                       
                "attriblabel"
                {
                        "font"                  "ItemFontAttribLarge"
                        "visible"               "0"
                }
                       
                "itemmodelpanel"
                {
                        "use_item_rendertarget" "0"
                        "allow_rot"                             "0"
                }
        }
 
        "NumberBg8"
        {
                "ControlName"   "CIconPanel"
                "fieldName"             "NumberBg8"
                "xpos"                  "417"
                "ypos"                  "140"
                "zpos"                  "4"
                "wide"                  "15"
                "tall"                  "15"
                "visible"               "0"
                "enabled"               "0"
                "scaleImage"    "1"    
                "icon"                  "ico_key_blank"
                "iconColor"             "255 255 255 255"
        }
       
        "NumberLabel8"
        {      
                "ControlName"   "CExLabel"
                "fieldName"             "NumberLabel8"
                "font"                  "CerbeticaBold20"
                "fgcolor"               "TanLight"
                "xpos"                  "420"
                "ypos"                  "95"
                "zpos"                  "5"
                "wide"                  "15"
                "tall"                  "15"
                "autoResize"    "0"
                "pinCorner"             "0"
                "visible"               "1"
                "enabled"               "1"
                "labelText"             "8"
                "textAlignment" "Center"
                "dulltext"              "1"
                "brighttext"    "0"
        }
       
                "NumberLabel8BG"
        {      
                "ControlName"   "CExLabel"
                "fieldName"             "NumberLabel8BG"
                "font"                  "CerbeticaBold20"
                "fgcolor"               "TransparentBlack"
                "ypos"                  "97"
                "xpos"                  "422"
                "zpos"                  "5"
                "wide"                  "15"
                "tall"                  "15"
                "autoResize"    "0"
                "pinCorner"             "0"
                "visible"               "1"
                "enabled"               "1"
                "labelText"             "8"
                "textAlignment" "Center"
                "dulltext"              "1"
                "brighttext"    "0"
        }
}