"Resource/UI/HudPlayerHealth.res"
{	
	// player health data
	"HudPlayerHealth"
	{
		"ControlName"           	"EditablePanel"
		"fieldName"	            	"HudPlayerHealth"
		"xpos"		               	"c-250"
		"ypos"		               	"c60"
		"zpos"		               	"2"
		"wide"		              	"150"
		"tall"			            "150"
		"visible"	              	"1"
		"enabled"		            "1"	
		"HealthBonusPosAdj"     	"35"
		"HealthDeathWarning"    	"0.49"
		"HealthDeathWarningColor"	"HUDDeathWarning"
	}	
	"PlayerStatusHealthImage"
	{
		"ControlName" 	"ImagePanel"
		"fieldName"		  "PlayerStatusHealthImage"
		"xpos"	    		"-8888"
		"ypos"	    		"-8888"
		"zpos"		    	"4"
		"wide"		    	"0"
		"tall"          "0"
		"visible"		    "1"
		"enabled"		    "1"
		"scaleImage"	  "1"	
	}		
	"PlayerStatusHealthImageBG"
	{
		"ControlName"	  "ImagePanel"
		"fieldName"	  	"PlayerStatusHealthImageBG"
		"xpos"	  		  "-8888"
		"ypos"	  	  	"-8888"
		"zpos"		    	"3"
		"wide"		    	"0"
		"tall"		    	"0"
		"visible"	    	"1"
		"enabled"	    	"1"
		"image"			    "../hud/health_bg"
		"scaleImage"	  "1"	
	}	
	"PlayerStatusHealthBonusImage"
	{
		"ControlName"	"ImagePanel"
		"fieldName"		"PlayerStatusHealthBonusImage"
		"xpos"			"43"
		"ypos"			"46"
		"zpos"			"-4"
		"wide"			"66"
		"tall"			"66"
		"visible"		"0"
		"enabled"		"1"
		"image"			"../hud/health_over_bg"
		"scaleImage"	"1"	
	}
	"PlayerStatusHealthValue"
	{
		"ControlName"	  "CExLabel"
		"fieldName"	  	"PlayerStatusHealthValue"
		"xpos"		    	"0"
		"ypos"		    	"0"	
		"zpos"		    	"5"
		"wide"		    	"150"
		"tall"		    	"150"
		"visible"		  	"1"
		"enabled"	  		"1"
		"labelText" 		"%Health%"
		"textAlignment"	"center"	
		"font"          "M0refont48"
		"fgcolor"	    	"255 255 255 255"
	}
	"PlayerStatusHealthValueshadow"
	{
		"ControlName"	  "CExLabel"
		"fieldName"	  	"PlayerStatusHealthValueshadow"
		"xpos"	    		"2"
		"ypos"	    		"2"	
		"zpos"	    		"5"
		"wide"		    	"150"
		"tall"		    	"150"
		"visible"	    	"1"
		"enabled"	    	"1"
		"labelText"	  	"%Health%"
		"textAlignment"	"center"	
		"font"          "M0refont48"
		"fgcolor"	     	"0 0 0 255"
	}	
	"PlayerStatusHealthValueshadowExtra"
	{
		"ControlName"	  "CExLabel"
		"fieldName"	  	"PlayerStatusHealthValueshadowExtra"
		"xpos"	    		"3"
		"ypos"	    		"3"	
		"zpos"	    		"5"
		"wide"		    	"150"
		"tall"		    	"150"
		"visible"	    	"1"
		"enabled"	    	"1"
		"labelText"	  	"%Health%"
		"textAlignment"	"center"	
		"font"          "M0refont48"
		"fgcolor"	     	"0 0 0 0"
	}	
														
	"PlayerStatusBleedImage"
	{
		"ControlName"	"ImagePanel"
		"fieldName"		"PlayerStatusBleedImage"
		"xpos"			"78"
		"ypos"			"15"
		"zpos"			"7"
		"wide"			"18"
		"tall"			"18"
		"visible"		"1"
		"enabled"		"1"
		"scaleImage"	"1"	
		"image"			"../vgui/bleed_drop"
		"fgcolor"		"TanDark"
	}	
	"PlayerStatusMilkImage"
	{
		"ControlName"	"ImagePanel"
		"fieldName"		"PlayerStatusMilkImage"
		"xpos"			"78"
		"ypos"			"15"
		"zpos"			"7"
		"wide"			"18"
		"tall"			"18"
		"visible"		"1"
		"enabled"		"1"
		"scaleImage"	"1"	
		"image"			"../vgui/bleed_drop"
		"fgcolor"		"TanDark"
	}
	"PlayerStatusMarkedForDeathImage"
	{
		"ControlName"	"ImagePanel"
		"fieldName"		"PlayerStatusMarkedForDeathImage"
		"xpos"			"c-250"
		"ypos"			"c60"
		"zpos"			"7"
		"wide"			"32"
		"tall"			"32"
		"visible"		"1"
		"enabled"		"1"
		"scaleImage"	"1"	
		"image"			"../vgui/marked_for_death"
		"fgcolor"		"TanDark"
	}
	"PlayerStatusMarkedForDeathSilentImage"
	{
		"ControlName"	"ImagePanel"
		"fieldName" "PlayerStatusMarkedForDeathSilentImage"
		"xpos"			"c-250"
		"ypos"			"c60"
		"zpos"			"7"
		"wide"			"31"
		"tall"			"31"
		"visible"		"1"
		"enabled"		"1"
		"scaleImage"	"1"
		"image"			"../vgui/marked_for_death"
		"fgcolor"		"TanDark"
	}
	
	"PlayerStatus_MedicUberBulletResistImage"
	{
		"ControlName"	"ImagePanel"
		"fieldName"		"PlayerStatus_MedicUberBulletResistImage"
		"xpos"			"c185"
		"xpos_minmode"	"c170"
		"ypos"			"0"
		"zpos"			"7"
		"wide"			"31"
		"tall"			"31"
		"visible"		"1"
		"enabled"		"1"
		"scaleImage"	"1"	
		"image"			"../HUD/defense_buff_bullet_blue"
		"fgcolor"		"TanDark"
	}
	"PlayerStatus_MedicUberBlastResistImage"
	{
		"ControlName"	"ImagePanel"
		"fieldName"		"PlayerStatus_MedicUberBlastResistImage"
		"xpos"			"85"
		"xpos_minmode"	"70"
		"ypos"			"0"
		"zpos"			"7"
		"wide"			"31"
		"tall"			"31"
		"visible"		"1"
		"enabled"		"1"
		"scaleImage"	"1"	
		"image"			"../HUD/defense_buff_explosion_blue"
		"fgcolor"		"TanDark"
	}
	"PlayerStatus_MedicUberFireResistImage"
	{
		"ControlName"	"ImagePanel"
		"fieldName"		"PlayerStatus_MedicUberFireResistImage"
		"xpos"			"85"
		"xpos_minmode"	"70"
		"ypos"			"0"
		"zpos"			"7"
		"wide"			"31"
		"tall"			"31"
		"visible"		"1"
		"enabled"		"1"
		"scaleImage"	"1"	
		"image"			"../HUD/defense_buff_fire_blue"
		"fgcolor"		"TanDark"
	}

	"PlayerStatus_MedicSmallBulletResistImage"
	{
		"ControlName"	"ImagePanel"
		"fieldName"		"PlayerStatus_MedicSmallBulletResistImage"
		"xpos"			"85"
		"xpos_minmode"	"70"
		"ypos"			"0"
		"zpos"			"7"
		"wide"			"31"
		"tall"			"31"
		"visible"		"1"
		"enabled"		"1"
		"scaleImage"	"1"	
		"image"			"../HUD/defense_buff_bullet_blue"
		"fgcolor"		"TanDark"
	}
	"PlayerStatus_MedicSmallBlastResistImage"
	{
		"ControlName"	"ImagePanel"
		"fieldName"		"PlayerStatus_MedicSmallBlastResistImage"
		"xpos"			"85"
		"xpos_minmode"	"70"
		"ypos"			"0"
		"zpos"			"7"
		"wide"			"31"
		"tall"			"31"
		"visible"		"1"
		"enabled"		"1"
		"scaleImage"	"1"	
		"image"			"../HUD/defense_buff_explosion_blue"
		"fgcolor"		"TanDark"
	}
	"PlayerStatus_MedicSmallFireResistImage"
	{
		"ControlName"	"ImagePanel"
		"fieldName"		"PlayerStatus_MedicSmallFireResistImage"
		"xpos"			"85"
		"xpos_minmode"	"70"
		"ypos"			"0"
		"zpos"			"7"
		"wide"			"31"
		"tall"			"31"
		"visible"		"1"
		"enabled"		"1"
		"scaleImage"	"1"	
		"image"			"../HUD/defense_buff_fire_blue"
		"fgcolor"		"TanDark"
	}
	"PlayerStatus_WheelOfDoom"
	{
		"ControlName"	"ImagePanel"
		"fieldName"		"PlayerStatus_WheelOfDoom"
		"xpos"			"0"
		"ypos"			"0"
		"zpos"			"7"
		"wide"			"32"
		"tall"			"32"
		"visible"		"1"
		"enabled"		"1"
		"scaleImage"	"1"	
		"image"			"../signs/death_wheel_whammy"
		"fgcolor"		"TanDark"
	}
}
