"Resource/UI/HudAmmoWeapons.res"
{
	"HudWeaponLowAmmoImage"
	{
		"ControlName"	"ImagePanel"
		"fieldName"		"HudWeaponLowAmmoImage"
		"xpos"			"0"
		"ypos"			"0"
		"zpos"			"0"
		"wide"			"0"
		"tall"			"0"
		"visible"		"0"
		"enabled"		"0"
	}

	"HudWeaponAmmoBG"
	{
		"ControlName"	"CTFImagePanel"
		"fieldName"		"HudWeaponAmmoBG"
		"wide"			"0"
		"tall"			"0"
		"visible"		"0"
		"enabled"		"0"		
	}
	"AmmoInClip"
	{
		"ControlName"	"CExLabel"
		"fieldName"		"AmmoInClip"
		"font"			"HudFontBiggerBold"
		"fgcolor"		"0 255 0 255"
		"xpos"			"0"
		"ypos"			"-23"
		"zpos"			"5"
		"wide"			"100"
		"tall"			"70"
		"visible"		"0"
		"enabled"		"1"
		"textAlignment"	"east"	
		"labelText"		"%Ammo%"
		
	}		
	"AmmoInClipShadow"
	{
		"ControlName"	"CExLabel"
		"fieldName"		"AmmoInClipShadow"
		"font"			"HudFontBiggerBold"
		"fgcolor"		"SuperBlack"
		"xpos"			"3"
		"ypos"			"-24"
		"zpos"			"4"
		"wide"			"100"
		"tall"			"70"
		"visible"		"0"
		"enabled"		"1"
		"textAlignment"	"east"	
		"labelText"		"%Ammo%"
		
	}						
	"AmmoInReserve"
	{
		"ControlName"	"CExLabel"
		"fieldName"		"AmmoInReserve"
		"font"			"HudFontMediumBold"
		"fgcolor"		"255 255 0 255"
		"xpos"			"115"
		"ypos"			"10"
		"zpos"			"7"
		"wide"			"84"
		"tall"			"40"
		"visible"		"0"
		"enabled"		"1"
		"textAlignment"	"west"		
		"labelText"		"%AmmoInReserve%"
	}		
	"AmmoInReserveShadow"
	{
		"ControlName"	"CExLabel"
		"fieldName"		"AmmoInReserveShadow"
		"font"			"HudFontMediumBold"
		"fgcolor"		"SuperBlack"
		"xpos"			"118"
		"ypos"			"12"
		"zpos"			"7"
		"wide"			"84"
		"tall"			"40"
		"visible"		"0"
		"enabled"		"1"
		"textAlignment"	"west"		
		"labelText"		"%AmmoInReserve%"
	}									
	"AmmoNoClip"
	{
		"ControlName"	"CExLabel"
		"fieldName"		"AmmoNoClip"
		"font"			"HudFontBiggerBold"
		"fgcolor"		"0 255 0 255"
		"xpos"			"20"
		"ypos"			"-23"
		"zpos"			"5"
		"wide"			"170"
		"tall"			"70"
		"visible"		"0"
		"enabled"		"1"
		"textAlignment"	"west"		
		"labelText"		"%Ammo%"
		
	}	
	"AmmoNoClipShadow"
	{
		"ControlName"	"CExLabel"
		"fieldName"		"AmmoNoClipShadow"
		"font"			"HudFontBiggerBold"
		"fgcolor"		"SuperBlack"
		"xpos"			"23"
		"ypos"			"-24"
		"zpos"			"5"
		"wide"			"170"
		"tall"			"70"
		"visible"		"0"
		"enabled"		"1"
		"textAlignment"	"west"		
		"labelText"		"%Ammo%"
		
	}									
}
