"Resource/UI/HudPlayerHealth.res"
{

	"HealthTeamColorBG1"
	{
		"ControlName"	"CTFImagePanel"
		"fieldName"		"HealthTeamColorBG1"
		"xpos"			"69"
		"ypos"			"33"
		"zpos"			"-1"
		"wide"			"18"
		"tall"	 		"52"
		"visible"		"0"
		"enabled"		"1"
		"image"			"../hud/color_panel_brown"
		"scaleImage"	"1"
		"teambg_1"		"../hud/color_panel_brown"
		"teambg_2"		"../hud/color_panel_red"
		"teambg_3"		"../hud/color_panel_blu"

		"src_corner_height"		"23"				// pixels inside the image
		"src_corner_width"		"23"

		"draw_corner_width"		"0"				// screen size of the corners ( and sides ), proportional
		"draw_corner_height" 	"0"
	}

	"HealthTeamColorBG2"
	{
		"ControlName"	"CTFImagePanel"
		"fieldName"		"HealthTeamColorBG2"
		"xpos"			"88"
		"ypos"			"34"
		"zpos"			"-1"
		"wide"			"18"
		"tall"	 		"52"
		"visible"		"1"
		"enabled"		"1"
		"image"			"../hud/color_panel_brown"
		"scaleImage"	"1"
		"teambg_1"		"../hud/color_panel_brown"
		"teambg_2"		"../hud/color_panel_red"
		"teambg_3"		"../hud/color_panel_blu"

		"src_corner_height"		"23"				// pixels inside the image
		"src_corner_width"		"23"

		"draw_corner_width"		"0"				// screen size of the corners ( and sides ), proportional
		"draw_corner_height" 	"0"
	}

	"HealthTeamColorBG3"
	{
		"ControlName"	"CTFImagePanel"
		"fieldName"		"HealthTeamColorBG3"
		"xpos"			"70"
		"ypos"			"52"
		"zpos"			"-1"
		"wide"			"52"
		"tall"	 		"18"
		"visible"		"1"
		"enabled"		"1"
		"image"			"../hud/color_panel_brown"
		"scaleImage"	"1"
		"teambg_1"		"../hud/color_panel_brown"
		"teambg_2"		"../hud/color_panel_red"
		"teambg_3"		"../hud/color_panel_blu"

		"src_corner_height"		"23"				// pixels inside the image
		"src_corner_width"		"23"

		"draw_corner_width"		"0"				// screen size of the corners ( and sides ), proportional
		"draw_corner_height" 	"0"
	}

	"HudPlayerHealth"
	{
		"ControlName"	"EditablePanel"
		"fieldName"		"HudPlayerHealth"
		"xpos"			"c-340"
		"ypos"			"r89"
		"zpos"			"2"
		"wide"			"300"
		"tall"			"120"
		"visible"		"1"
		"enabled"		"1"
		"HealthBonusPosAdj"	"35"
		"HealthDeathWarning"	"0.49"
		"HealthDeathWarningColor"	"HUDDeathWarning"
	}
	"PlayerStatusHealthImage"
	{
		"ControlName"	"ImagePanel"
		"fieldName"		"PlayerStatusHealthImage"
		"xpos"			"70"
		"ypos"			"34"
		"zpos"			"4"
		"wide"			"48"
		"tall"			"48"
		"visible"		"1"
		"enabled"		"1"
	}
	"PlayerStatusHealthImageBG"
	{
		"ControlName"	"ImagePanel"
		"fieldName"		"PlayerStatusHealthImageBG"
		"xpos"			"68"
		"ypos"			"32"
		"zpos"			"3"
		"wide"			"52"
		"tall"			"52"
		"visible"		"1"
		"enabled"		"1"
		"image"			"../hud/health_bg"
		"scaleimage"	"1"
	}
	"PlayerStatusHealthBonusImage"
	{
		"ControlName"	"ImagePanel"
		"fieldName"		"PlayerStatusHealthBonusImage"
		"xpos"			"148"
		"ypos"			"20"
		"zpos"			"2"
		"wide"			"80"
		"tall"			"80"
		"visible"		"0"
		"enabled"		"1"
		"image"			"../hud/health_over_bg"
		"scaleimage"	"1"
	}
	"PlayerStatusHealthValue"
	{
		"ControlName"	"CExLabel"
		"fieldName"		"PlayerStatusHealthValue"
		"xpos"			"90"
		"ypos"			"-11"
		"zpos"			"5"
		"wide"			"200"
		"tall"			"70"
		"visible"		"1"
		"enabled"		"1"
		"labelText"		"%Health%"
		"textAlignment"	"center"
		"font"			"HudFontBiggerBold"
		"fgcolor"		"100 180 180 255"
	}
	"PlayerStatusHealthValueBG"
	{
		"ControlName"	"CExLabel"
		"fieldName"		"PlayerStatusHealthValueBG"
		"xpos"			"93"
		"ypos"			"-10"
		"zpos"			"4"
		"wide"			"200"
		"tall"			"70"
		"visible"		"1"
		"enabled"		"1"
		"labelText"		"%Health%"
		"textAlignment"	"center"
		"font"			"HudFontBiggerBold"
		"fgcolor"		"SuperBlack"
	}
	"PlayerStatusBleedImage"
	{
		"ControlName"	"ImagePanel"
		"fieldName"		"PlayerStatusBleedImage"
		"xpos"			"78"
		"ypos"			"0"
		"zpos"			"7"
		"wide"			"32"
		"tall"			"32"
		"visible"		"1"
		"enabled"		"1"
		"scaleImage"	"1"
		"image"			"../vgui/bleed_drop"
		"fgcolor"		"TanDark"
	}
	"PlayerStatusMilkImage"
	{
		"ControlName"	"ImagePanel"
		"fieldName"		"PlayerStatusMilkImage"
		"xpos"			"78"
		"ypos"			"0"
		"zpos"			"7"
		"wide"			"32"
		"tall"			"32"
		"visible"		"1"
		"enabled"		"1"
		"scaleImage"	"1"
		"image"			"../vgui/bleed_drop"
		"fgcolor"		"TanDark"
	}
	"PlayerStatusMarkedForDeathImage"
	{
		"ControlName"	"ImagePanel"
		"fieldName"		"PlayerStatusMarkedForDeathImage"
		"xpos"			"78"
		"ypos"			"0"
		"zpos"			"7"
		"wide"			"32"
		"tall"			"32"
		"visible"		"1"
		"enabled"		"1"
		"scaleImage"	"1"
		"image"			"../vgui/marked_for_death"
		"fgcolor"		"TanDark"
	}
	"PlayerStatusMarkedForDeathSilentImage"
	{
		"ControlName"	"ImagePanel"
		"fieldName"		"PlayerStatusMarkedForDeathSilentImage"
		"xpos"			"78"
		"ypos"			"0"
		"zpos"			"7"
		"wide"			"32"
		"tall"			"32"
		"visible"		"1"
		"enabled"		"1"
		"scaleImage"	"1"
		"image"			"../vgui/marked_for_death"
		"fgcolor"		"TanDark"
	}
	"PlayerStatus_MedicUberBulletResistImage"
	{
		"ControlName"	"ImagePanel"
		"fieldName"		"PlayerStatus_MedicUberBulletResistImage"
		"xpos"			"78"
		"ypos"			"0"
		"zpos"			"7"
		"wide"			"32"
		"tall"			"32"
		"visible"		"1"
		"enabled"		"1"
		"scaleImage"	"1"
		"image"			"../HUD/defense_buff_bullet_blue"
		"fgcolor"		"TanDark"
	}
	"PlayerStatus_MedicUberBlastResistImage"
	{
		"ControlName"	"ImagePanel"
		"fieldName"		"PlayerStatus_MedicUberBlastResistImage"
		"xpos"			"78"
		"ypos"			"0"
		"zpos"			"7"
		"wide"			"32"
		"tall"			"32"
		"visible"		"1"
		"enabled"		"1"
		"scaleImage"	"1"
		"image"			"../HUD/defense_buff_explosion_blue"
		"fgcolor"		"TanDark"
	}
	"PlayerStatus_MedicUberFireResistImage"
	{
		"ControlName"	"ImagePanel"
		"fieldName"		"PlayerStatus_MedicUberFireResistImage"
		"xpos"			"78"
		"ypos"			"0"
		"zpos"			"7"
		"wide"			"32"
		"tall"			"32"
		"visible"		"1"
		"enabled"		"1"
		"scaleImage"	"1"
		"image"			"../HUD/defense_buff_fire_blue"
		"fgcolor"		"TanDark"
	}

	"PlayerStatus_MedicSmallBulletResistImage"
	{
		"ControlName"	"ImagePanel"
		"fieldName"		"PlayerStatus_MedicSmallBulletResistImage"
		"xpos"			"78"
		"ypos"			"0"
		"zpos"			"7"
		"wide"			"32"
		"tall"			"32"
		"visible"		"1"
		"enabled"		"1"
		"scaleImage"	"1"
		"image"			"../HUD/defense_buff_bullet_blue"
		"fgcolor"		"TanDark"
	}
	"PlayerStatus_MedicSmallBlastResistImage"
	{
		"ControlName"	"ImagePanel"
		"fieldName"		"PlayerStatus_MedicSmallBlastResistImage"
		"xpos"			"78"
		"ypos"			"0"
		"zpos"			"7"
		"wide"			"32"
		"tall"			"32"
		"visible"		"1"
		"enabled"		"1"
		"scaleImage"	"1"
		"image"			"../HUD/defense_buff_explosion_blue"
		"fgcolor"		"TanDark"
	}
	"PlayerStatus_MedicSmallFireResistImage"
	{
		"ControlName"	"ImagePanel"
		"fieldName"		"PlayerStatus_MedicSmallFireResistImage"
		"xpos"			"78"
		"ypos"			"0"
		"zpos"			"7"
		"wide"			"32"
		"tall"			"32"
		"visible"		"1"
		"enabled"		"1"
		"scaleImage"	"1"
		"image"			"../HUD/defense_buff_fire_blue"
		"fgcolor"		"TanDark"
	}
	"PlayerStatus_WheelOfDoom"
	{
		"ControlName"	"ImagePanel"
		"fieldName"		"PlayerStatus_WheelOfDoom"
		"xpos"			"54"
		"ypos"			"4"
		"zpos"			"7"
		"wide"			"22"
		"tall"			"22"
		"visible"		"1"
		"enabled"		"1"
		"scaleImage"	"1"
		"image"			"../signs/death_wheel_whammy"
		"fgcolor"		"TanDark"
	}
	"PlayerStatus_SoldierOffenseBuff"
	{
		"ControlName"	"ImagePanel"
		"fieldName"		"PlayerStatus_SoldierOffenseBuff"
		"xpos"			"78"
		"ypos"			"0"
		"zpos"			"7"
		"wide"			"32"
		"tall"			"32"
		"visible"		"1"
		"enabled"		"1"
		"scaleImage"	"1"
		"image"			"../HUD/defense_buff_bullet_blue"
		"fgcolor"		"TanDark"
	}

	"PlayerStatus_SoldierDefenseBuff"
	{
		"ControlName"	"ImagePanel"
		"fieldName"		"PlayerStatus_SoldierDefenseBuff"
		"xpos"			"78"
		"ypos"			"0"
		"zpos"			"7"
		"wide"			"32"
		"tall"			"32"
		"visible"		"1"
		"enabled"		"1"
		"scaleImage"	"1"
		"image"			"../HUD/defense_buff_bullet_blue"
		"fgcolor"		"TanDark"
	}

	"PlayerStatus_SoldierHealOnHitBuff"
	{
		"ControlName"	"ImagePanel"
		"fieldName"		"PlayerStatus_SoldierHealOnHitBuff"
		"xpos"			"78"
		"ypos"			"0"
		"zpos"			"7"
		"wide"			"32"
		"tall"			"32"
		"visible"		"1"
		"enabled"		"1"
		"scaleImage"	"1"
		"image"			"../HUD/defense_buff_bullet_blue"
		"fgcolor"		"TanDark"
	}
}
