"Resource/UI/MainMenuOverride.res"
{
	MainMenuOverride
	{
		"fieldName"		"MainMenuOverride"
		"visible"		"1"
		"enabled"		"1"
		"xpos"			"0"
		"ypos"			"0"
		"zpos"			"0"
		"wide"			"f0"
		"tall"			"480"

//		"bgcolor_override"	"0 0 0 240"

		"update_url"	"http://store.steampowered.com/news/?filter=updates&appids=440"
		"blog_url"		"http://www.teamfortress.com/"

		"button_x_offset"	"-285"
		"button_y"			"120"
		"button_y_delta"	"5"
		"button_kv"
		{
			"xpos"			"0"
			"ypos"			"150"
			"wide"			"250"
			"tall"			"26"
			"visible"		"1"

			"SubButton"
			{
				"ControlName"	"CExImageButton"
				"fieldName"		"SubButton"
				"xpos"			"0"
				"ypos"			"0"
				"wide"			"250"
				"tall"			"26"
				"autoResize"	"0"
				"pinCorner"		"3"
				"visible"		"1"
				"enabled"		"1"
				"tabPosition"	"0"
				"textinsetx"	"5"//"25"
				"use_proportional_insets" "1"
				"font"			"HudFontSmallBold"
				"textAlignment"	"west"
				"dulltext"		"0"
				"brighttext"	"0"
				"default"		"1"
				"sound_depressed"	"UI/buttonclick.wav"
				"sound_released"	"UI/buttonclickrelease.wav"

				"border_default"	"MainMenuButtonDefault"
				"border_armed"		"MainMenuButtonArmed"
				"paintbackground"	"0"

				"defaultFgColor_override" "46 43 42 255"
				"armedFgColor_override" "235 226 202 255"
				"depressedFgColor_override" "46 43 42 255"

				"image_drawcolor"	"117 107 94 255"
				"image_armedcolor"	"235 226 202 255"
				"SubImage"
				{
					"ControlName"	"ImagePanel"
					"fieldName"		"SubImage"
					"xpos"			"6"
					"ypos"			"6"
					"zpos"			"1"
					"wide"			"14"
					"tall"			"14"
					"visible"		"1"
					"enabled"		"1"
					"scaleImage"	"1"
				}
			}
		}

		"SaxxySettings"
		{
			"xpos"			"0"
			"ypos"			"0"
			"zpos"			"-101"
			"wide"			"f0"
			"tall"			"480"

			"autoResize"	"0"
			"pinCorner"		"0"
			"visible"		"0"
			"enabled"		"0"

			"flashbounds_x"	"50"
			"flashbounds_y"	"65"
			"flashbounds_w"	"250"
			"flashbounds_h"	"120"

			"flashstartsize_min"	"8"
			"flashstartsize_max"	"12"

			"flash_maxscale"		"4"

			"flash_lifelength_min"	".1"
			"flash_lifelength_max"	".2"

			"curtain_anim_duration"		"4.0"
			"curtain_open_time"		"2.8"
			"flash_start_time"		"4.0"

			"initial_freakout_duration"		"15.0"
			"clap_sound_duration"	"10.0"

			"CameraFlashSettings"
			{
				"visible"		"1"
				"enabled"		"1"
				"tileImage"		"0"
				"scaleImage"	"1"
				"zpos"			"9"
			}
		}
	}

	"Background"
	{
		"ControlName"	"ImagePanel"
		"fieldName"		"Background"
		"xpos"			"0"
		"ypos"			"0"
		"zpos"			"-200"
		"wide"			"f0"
		"tall"			"480"
		"visible"		"0"
		"enabled"		"1"
		"image"			""
		"scaleImage"	"1"

		if_halloween_0
		{
			"image"		"../console/title_team_halloween2011"
		}
		if_halloween_1
		{
			"image"		"../console/title_team_halloween2012"
		}
		if_halloween_2
		{
			"image"		"../console/title_team_halloween2013"
		}
		if_fullmoon
		{
			"image"		"../console/title_fullmoon"
		}
		if_christmas
		{
			"image"		"../console/background_xmas2011"
		}
	}

	"TFLogoImage"
	{
		"ControlName"	"ImagePanel"
		"fieldName"		"TFLogoImage"
		"xpos"			"c-290"
		"ypos"			"24"
		"zpos"			"-99"
		"wide"			"256"
		"tall"			"64"
		"visible"		"0"
		"enabled"		"0"
		"image"			"../logo/new_tf2_logo"
		"scaleImage"	"1"
	}

	"TFCharacterImage"
	{
    //repositioned because visible/enabled didn't work
		"ControlName"	"ImagePanel"
		"fieldName"		"TFCharacterImage"
		"xpos"			"9999" //"c-250"
		"ypos"			"9999" //"-80"
		"zpos"			"-99"
		"wide"			"600"
		"tall"			"600"
		"visible"		"0"
		"enabled"		"0"
		"scaleImage"	"1"
	}

    "QuitBGPanel"
    {
 		"ControlName"	"EditablePanel"
		"fieldName"		"QuitBGPanel"
		"xpos"			"c-290"
		"ypos"			"348"//"228"
		"zpos"			"-1"
		"wide"			"260"
		"tall"			"34"
		"visible"		"1"
		"pinCorner"		"0"
		"autoResize"	"0"
		"PaintBackgroundType"	"2"
		"border"		"MainMenuBGBorder"
    }
	"QuitButton"
	{
		"ControlName"	"EditablePanel"
		"fieldname"		"QuitButton"
		"xpos"			"c-285"
		"ypos"			"352"
		"zpos"			"11"
		"wide"			"270"
		"tall"			"36"
		"visible"		"1"
		"PaintBackgroundType"	"2"
		"SubButton"
		{
			"ControlName"	"CExImageButton"
			"fieldName"		"SubButton"
			"xpos"			"0"
			"ypos"			"0"
			"wide"			"250"
			"tall"			"26"
			"autoResize"	"0"
			"pinCorner"		"3"
			"visible"		"1"
			"enabled"		"1"
			"tabPosition"	"0"
			"textinsetx"	"5"
			"use_proportional_insets" "1"
			"font"			"HudFontSmallBold"
			"textAlignment"	"west"
			"dulltext"		"0"
			"brighttext"	"0"
			"default"		"1"
			"sound_depressed"	"UI/buttonclick.wav"
			"sound_released"	"UI/buttonclickrelease.wav"

			"border_default"	"MainMenuButtonDefault"
			"border_armed"		"MainMenuButtonArmed"
			"paintbackground"	"0"

			"defaultFgColor_override" "46 43 42 255"
			"armedFgColor_override" "235 226 202 255"
			"depressedFgColor_override" "46 43 42 255"

			"image_drawcolor"	"117 107 94 255"
			"image_armedcolor"	"235 226 202 255"
			"SubImage"
			{
				"ControlName"	"ImagePanel"
				"fieldName"		"SubImage"
				"xpos"			"6"
				"ypos"			"6"
				"zpos"			"1"
				"wide"			"14"
				"tall"			"14"
				"visible"		"1"
				"enabled"		"1"
				"scaleImage"	"1"
			}
		}
	}
	"DisconnectButton"
	{
		"ControlName"	"EditablePanel"
		"fieldname"		"DisconnectButton"
		"xpos"			"c-285"
		"ypos"			"352"
		"zpos"			"11"
		"wide"			"270"
		"tall"			"36"
		"visible"		"1"
		"PaintBackgroundType"	"2"
		"SubButton"
		{
			"ControlName"	"CExImageButton"
			"fieldName"		"SubButton"
			"xpos"			"0"
			"ypos"			"0"
			"wide"			"250"
			"tall"			"26"
			"autoResize"	"0"
			"pinCorner"		"3"
			"visible"		"1"
			"enabled"		"1"
			"tabPosition"	"0"
			"textinsetx"	"25"
			"use_proportional_insets" "1"
			"font"			"HudFontSmallBold"
			"textAlignment"	"west"
			"dulltext"		"0"
			"brighttext"	"0"
			"default"		"1"
			"sound_depressed"	"UI/buttonclick.wav"
			"sound_released"	"UI/buttonclickrelease.wav"

			"border_default"	"MainMenuButtonDefault"
			"border_armed"		"MainMenuButtonArmed"
			"paintbackground"	"0"

			"defaultFgColor_override" "46 43 42 255"
			"armedFgColor_override" "235 226 202 255"
			"depressedFgColor_override" "46 43 42 255"

			"image_drawcolor"	"117 107 94 255"
			"image_armedcolor"	"235 226 202 255"
			"SubImage"
			{
				"ControlName"	"ImagePanel"
				"fieldName"		"SubImage"
				"xpos"			"6"
				"ypos"			"6"
				"zpos"			"1"
				"wide"			"14"
				"tall"			"14"
				"visible"		"1"
				"enabled"		"1"
				"scaleImage"	"1"
			}
		}
	}

	"MainMenuBGPanel"
	{
		"ControlName"	"EditablePanel"
		"fieldName"		"MainMenuBGPanel"
		"xpos"			"c-290"
		"ypos"			"92"
		"zpos"			"-1"
		"wide"			"260"
		"tall"			"120"
		"visible"		"1"
		"pinCorner"		"0"
		"autoResize"	"0"
		"PaintBackgroundType"	"2"
		"border"		"MainMenuBGBorder"
	}
	"PVHUDLabel"
	{
		"ControlName"	"CExLabel"
		"fieldName"		"PVHUDLabel"
		"font"			"HudFontSmallBold"
		"labelText"		"PVHUD v2.84"
		"textAlignment"	"west"
		"xpos"			"c-278"
		"ypos"			"93"
		"wide"			"140"
		"tall"			"30"
		"autoResize"	"0"
		"pinCorner"		"0"
		"visible"		"1"
		"enabled"		"1"
		"fgcolor_override"	"235 227 203 255"
	}
	"PVHUDButton"
	{
		"ControlName"	"EditablePanel"
		"fieldname"		"PVHUDButton"
		"xpos"			"c-285"
		"ypos"			"98"
		"zpos"			"11"
		"wide"			"270"
		"tall"			"20"
		"visible"		"1"
		"PaintBackgroundType"	"2"
		"SubButton"
		{
			"ControlName"	"CExImageButton"
			"fieldName"		"SubButton"
			"xpos"			"0"
			"ypos"			"0"
			"wide"			"250"
			"tall"			"26"
			"autoResize"	"0"
			"pinCorner"		"3"
			"visible"		"1"
			"enabled"		"1"
			"tabPosition"	"0"
			"textinsetx"	"5"
			"use_proportional_insets" "1"
			"font"			"HudFontSmallBold"
			"textAlignment"	"west"
			"dulltext"		"0"
			"brighttext"	"0"
			"default"		"1"
			"sound_depressed"	"UI/buttonclick.wav"
			"sound_released"	"UI/buttonclickrelease.wav"

			"border_default"	""
			"border_armed"		""
			"paintbackground"	"0"

			"defaultFgColor_override" "46 43 42 0"
			"armedFgColor_override" "235 226 202 0"
			"depressedFgColor_override" "46 43 42 0"

			"image_drawcolor"	"117 107 94 0"
			"image_armedcolor"	"235 226 202 0"
			"SubImage"
			{
				"ControlName"	"ImagePanel"
				"fieldName"		"SubImage"
				"xpos"			"6"
				"ypos"			"6"
				"zpos"			"1"
				"wide"			"14"
				"tall"			"14"
				"visible"		"1"
				"enabled"		"1"
				"scaleImage"	"1"
			}
		}
	}
	"QuickPlayButton" //Barrakketh
	{
		"ControlName"	"EditablePanel"
		"fieldname"		"QuickPlayButton"
		"xpos"			"c-65"
		"ypos"			"123"
		"zpos"			"10"
		"wide"			"20"
		"tall"			"20"
		"visible"		"1"

		"SubButton"
		{
			"ControlName"	"CExImageButton"
			"fieldName"		"SubButton"
			"xpos"			"0"
			"ypos"			"0"
			"wide"			"20"
			"tall"			"20"
			"autoResize"	"0"
			"pinCorner"		"3"
			"visible"		"1"
			"enabled"		"1"
			"tabPosition"	"0"
			"textinsetx"	"100"
			"use_proportional_insets" "1"
			"font"			"HudFontSmallBold"
			"textAlignment"	"west"
			"dulltext"		"0"
			"brighttext"	"0"
			"default"		"1"
			"sound_depressed"	"UI/buttonclick.wav"
			"sound_released"	"UI/buttonclickrelease.wav"

			"border_default"	"MainMenuMiniButtonDefault"
			"border_armed"		"MainMenuMiniButtonArmed"
			"paintbackground"	"0"

			"defaultFgColor_override" "46 43 42 255"
			"armedFgColor_override" "46 43 42 255"
			"depressedFgColor_override" "46 43 42 255"

			"image_drawcolor"	"235 226 202 255"
			"image_armedcolor"	"235 226 202 255"

			"SubImage"
			{
				"ControlName"	"ImagePanel"
				"fieldName"		"SubImage"
				"xpos"			"4"
				"ypos"			"4"
				"zpos"			"1"
				"wide"			"12"
				"tall"			"12"
				"visible"		"1"
				"enabled"		"1"
				"image"			"glyph_server"
				"scaleImage"	"1"
			}
		}
	}
	"ResumeGameButton"
	{
		"ControlName"	"EditablePanel"
		"fieldname"		"ResumeGameButton"
		"xpos"			"c285"
		"ypos"			"120"
		"zpos"			"11"
		"wide"			"270"
		"tall"			"36"
		"visible"		"1"
		"PaintBackgroundType"	"0"

		"SubButton"
		{
			"ControlName"	"CExImageButton"
			"fieldName"		"SubButton"
			"xpos"			"0"
			"ypos"			"0"
			"wide"			"250"
			"tall"			"26"
			"autoResize"	"0"
			"pinCorner"		"3"
			"visible"		"0"
			"enabled"		"0"
			"tabPosition"	"0"
			"textinsetx"	"25"
			"use_proportional_insets" "1"
			"font"			"HudFontSmallBold"
			"textAlignment"	"west"
			"dulltext"		"0"
			"brighttext"	"0"
			"default"		"1"
			"sound_depressed"	"UI/buttonclick.wav"
			"sound_released"	"UI/buttonclickrelease.wav"

			"border_default"	"MainMenuButtonDefault"
			"border_armed"		"MainMenuButtonArmed"
			"paintbackground"	"0"

			"defaultFgColor_override" "46 43 42 255"
			"armedFgColor_override" "235 226 202 255"
			"depressedFgColor_override" "46 43 42 255"

			"image_drawcolor"	"117 107 94 255"
			"image_armedcolor"	"235 226 202 255"

			"SubImage"
			{
				"ControlName"	"ImagePanel"
				"fieldName"		"SubImage"
				"xpos"			"6"
				"ypos"			"6"
				"zpos"			"1"
				"wide"			"14"
				"tall"			"14"
				"visible"		"1"
				"enabled"		"1"
				"scaleImage"	"1"
			}
		}
	}
	"CreateServerButton"
	{
		"ControlName"	"EditablePanel"
		"fieldname"		"CreateServerButton"
		"xpos"			"c-85"
		"ypos"			"123"
		"zpos"			"10"
		"wide"			"20"
		"tall"			"20"
		"visible"		"1"

		"SubButton"
		{
			"ControlName"	"CExImageButton"
			"fieldName"		"SubButton"
			"xpos"			"0"
			"ypos"			"0"
			"wide"			"20"
			"tall"			"20"
			"autoResize"	"0"
			"pinCorner"		"3"
			"visible"		"1"
			"enabled"		"1"
			"tabPosition"	"0"
			"textinsetx"	"100"
			"use_proportional_insets" "1"
			"font"			"HudFontSmallBold"
			"textAlignment"	"west"
			"dulltext"		"0"
			"brighttext"	"0"
			"default"		"1"
			"sound_depressed"	"UI/buttonclick.wav"
			"sound_released"	"UI/buttonclickrelease.wav"

			"border_default"	"MainMenuMiniButtonDefault"
			"border_armed"		"MainMenuMiniButtonArmed"
			"paintbackground"	"0"

			"defaultFgColor_override" "46 43 42 255"
			"armedFgColor_override" "46 43 42 255"
			"depressedFgColor_override" "46 43 42 255"

			"image_drawcolor"	"235 226 202 255"
			"image_armedcolor"	"235 226 202 255"

			"SubImage"
			{
				"ControlName"	"ImagePanel"
				"fieldName"		"SubImage"
				"xpos"			"4"
				"ypos"			"4"
				"zpos"			"1"
				"wide"			"12"
				"tall"			"12"
				"visible"		"1"
				"enabled"		"1"
				"image"			"glyph_create"
				"scaleImage"	"1"
			}
		}
	}

	"TrainingButton"
	{
		"ControlName"	"EditablePanel"
		"fieldname"		"TrainingButton"
		"xpos"			"c-105"
		"ypos"			"123"
		"zpos"			"10"
		"wide"			"20"
		"tall"			"20"
		"visible"		"1"

		"SubButton"
		{
			"ControlName"	"CExImageButton"
			"fieldName"		"SubButton"
			"xpos"			"0"
			"ypos"			"0"
			"wide"			"20"
			"tall"			"20"
			"autoResize"	"0"
			"pinCorner"		"3"
			"visible"		"1"
			"enabled"		"1"
			"tabPosition"	"0"
			"textinsetx"	"100"
			"use_proportional_insets" "1"
			"font"			"HudFontSmallBold"
			"textAlignment"	"west"
			"dulltext"		"0"
			"brighttext"	"0"
			"default"		"1"
			"sound_depressed"	"UI/buttonclick.wav"
			"sound_released"	"UI/buttonclickrelease.wav"

			"border_default"	"MainMenuMiniButtonDefault"
			"border_armed"		"MainMenuMiniButtonArmed"
			"paintbackground"	"0"

			"defaultFgColor_override" "46 43 42 255"
			"armedFgColor_override" "46 43 42 255"
			"depressedFgColor_override" "46 43 42 255"

			"image_drawcolor"	"235 226 202 255"
			"image_armedcolor"	"235 226 202 255"

			"SubImage"
			{
				"ControlName"	"ImagePanel"
				"fieldName"		"SubImage"
				"xpos"			"4"
				"ypos"			"4"
				"zpos"			"1"
				"wide"			"12"
				"tall"			"12"
				"visible"		"1"
				"enabled"		"1"
				"image"			"glyph_practice"
				"scaleImage"	"1"
			}
		}
	}
	"PlayPVEButton"
	{
		"ControlName"	"EditablePanel"
		"fieldname"		"PlayPVEButton"
		"xpos"			"c-125"
		"ypos"			"123"
		"zpos"			"10"
		"wide"			"20"
		"tall"			"20"
		"visible"		"1"

		"SubButton"
		{
			"ControlName"	"CExImageButton"
			"fieldName"		"SubButton"
			"xpos"			"0"
			"ypos"			"0"
			"wide"			"20"
			"tall"			"20"
			"autoResize"	"0"
			"pinCorner"		"3"
			"visible"		"1"
			"enabled"		"1"
			"tabPosition"	"0"
			"textinsetx"	"100"
			"use_proportional_insets" "1"
			"font"			"HudFontSmallBold"
			"textAlignment"	"west"
			"dulltext"		"0"
			"brighttext"	"0"
			"default"		"1"
			"sound_depressed"	"UI/buttonclick.wav"
			"sound_released"	"UI/buttonclickrelease.wav"

			"border_default"	"MainMenuMiniButtonDefault"
			"border_armed"		"MainMenuMiniButtonArmed"
			"paintbackground"	"0"

			"defaultFgColor_override" "46 43 42 255"
			"armedFgColor_override" "46 43 42 255"
			"depressedFgColor_override" "46 43 42 255"

			"image_drawcolor"	"235 226 202 255"
			"image_armedcolor"	"235 226 202 255"

			"SubImage"
			{
				"ControlName"	"ImagePanel"
				"fieldName"		"SubImage"
				"xpos"			"4"
				"ypos"			"4"
				"zpos"			"1"
				"wide"			"12"
				"tall"			"12"
				"visible"		"1"
				"enabled"		"1"
				"image"			"glyph_coop"
				"scaleImage"	"1"
			}
		}
	}
	"CallVoteButton"
	{
		"ControlName"	"EditablePanel"
		"fieldname"		"CallVoteButton"
		"xpos"			"c-125"
		"ypos"			"123"
		"zpos"			"12"
		"wide"			"26"
		"tall"			"26"
		"visible"		"1"

		"SubButton"
		{
			"ControlName"	"CExImageButton"
			"fieldName"		"SubButton"
			"xpos"			"0"
			"ypos"			"0"
			"wide"			"20"
			"tall"			"20"
			"autoResize"	"0"
			"pinCorner"		"3"
			"visible"		"1"
			"enabled"		"1"
			"tabPosition"	"0"
			"textinsetx"	"100"
			"use_proportional_insets" "1"
			"font"			"HudFontSmallBold"
			"textAlignment"	"west"
			"dulltext"		"0"
			"brighttext"	"0"
			"default"		"1"
			"sound_depressed"	"UI/buttonclick.wav"
			"sound_released"	"UI/buttonclickrelease.wav"

			"border_default"	"MainMenuMiniButtonDefault"
			"border_armed"		"MainMenuMiniButtonArmed"
			"paintbackground"	"0"

			"defaultFgColor_override" "46 43 42 255"
			"armedFgColor_override" "46 43 42 255"
			"depressedFgColor_override" "46 43 42 255"

			"image_drawcolor"	"235 226 202 255"
			"image_armedcolor"	"235 226 202 255"

			"SubImage"
			{
				"ControlName"	"ImagePanel"
				"fieldName"		"SubImage"
				"xpos"			"4"
				"ypos"			"4"
				"zpos"			"1"
				"wide"			"12"
				"tall"			"12"
				"visible"		"1"
				"enabled"		"1"
				"image"			"glyph_create"
				"scaleImage"	"1"
			}
		}
	}
	"MutePlayersButton"
	{
		"ControlName"	"EditablePanel"
		"fieldname"		"MutePlayersButton"
		"xpos"			"c-105"
		"ypos"			"123"
		"zpos"			"12"
		"wide"			"26"
		"tall"			"26"
		"visible"		"1"

		"SubButton"
		{
			"ControlName"	"CExImageButton"
			"fieldName"		"SubButton"
			"xpos"			"0"
			"ypos"			"0"
			"wide"			"20"
			"tall"			"20"
			"autoResize"	"0"
			"pinCorner"		"3"
			"visible"		"1"
			"enabled"		"1"
			"tabPosition"	"0"
			"textinsetx"	"100"
			"use_proportional_insets" "1"
			"font"			"HudFontSmallBold"
			"textAlignment"	"west"
			"dulltext"		"0"
			"brighttext"	"0"
			"default"		"1"
			"sound_depressed"	"UI/buttonclick.wav"
			"sound_released"	"UI/buttonclickrelease.wav"

			"border_default"	"MainMenuMiniButtonDefault"
			"border_armed"		"MainMenuMiniButtonArmed"
			"paintbackground"	"0"

			"defaultFgColor_override" "46 43 42 255"
			"armedFgColor_override" "46 43 42 255"
			"depressedFgColor_override" "46 43 42 255"

			"image_drawcolor"	"235 226 202 255"
			"image_armedcolor"	"235 226 202 255"

			"SubImage"
			{
				"ControlName"	"ImagePanel"
				"fieldName"		"SubImage"
				"xpos"			"4"
				"ypos"			"4"
				"zpos"			"1"
				"wide"			"12"
				"tall"			"12"
				"visible"		"1"
				"enabled"		"1"
				"image"			"glyph_create"
				"scaleImage"	"1"
			}
		}
	}
	"RequestCoachButton"
	{
		"ControlName"	"EditablePanel"
		"fieldname"		"RequestCoachButton"
		"xpos"			"c-85"
		"ypos"			"123"
		"zpos"			"12"
		"wide"			"26"
		"tall"			"26"
		"visible"		"1"

		"SubButton"
		{
			"ControlName"	"CExImageButton"
			"fieldName"		"SubButton"
			"xpos"			"0"
			"ypos"			"0"
			"wide"			"20"
			"tall"			"20"
			"autoResize"	"0"
			"pinCorner"		"3"
			"visible"		"1"
			"enabled"		"1"
			"tabPosition"	"0"
			"textinsetx"	"100"
			"use_proportional_insets" "1"
			"font"			"HudFontSmallBold"
			"textAlignment"	"west"
			"dulltext"		"0"
			"brighttext"	"0"
			"default"		"1"
			"sound_depressed"	"UI/buttonclick.wav"
			"sound_released"	"UI/buttonclickrelease.wav"

			"border_default"	"MainMenuMiniButtonDefault"
			"border_armed"		"MainMenuMiniButtonArmed"
			"paintbackground"	"0"

			"defaultFgColor_override" "46 43 42 255"
			"armedFgColor_override" "46 43 42 255"
			"depressedFgColor_override" "46 43 42 255"

			"image_drawcolor"	"235 226 202 255"
			"image_armedcolor"	"235 226 202 255"

			"SubImage"
			{
				"ControlName"	"ImagePanel"
				"fieldName"		"SubImage"
				"xpos"			"4"
				"ypos"			"4"
				"zpos"			"1"
				"wide"			"12"
				"tall"			"12"
				"visible"		"1"
				"enabled"		"1"
				"image"			"glyph_create"
				"scaleImage"	"1"
			}
		}
	}

	"AdvancedOptionsButton"
	{
		"ControlName"	"EditablePanel"
		"fieldname"		"AdvancedOptionsButton"
		"xpos"			"c-65"
		"ypos"			"154"
		"zpos"			"10"
		"wide"			"20"
		"tall"			"20"
		"visible"		"1"

		"SubButton"
		{
			"ControlName"	"CExImageButton"
			"fieldName"		"SubButton"
			"xpos"			"0"
			"ypos"			"0"
			"wide"			"20"
			"tall"			"20"
			"autoResize"	"0"
			"pinCorner"		"3"
			"visible"		"1"
			"enabled"		"1"
			"tabPosition"	"0"
			"textinsetx"	"100"
			"use_proportional_insets" "1"
			"font"			"HudFontSmallBold"
			"textAlignment"	"west"
			"dulltext"		"0"
			"brighttext"	"0"
			"default"		"1"
			"sound_depressed"	"UI/buttonclick.wav"
			"sound_released"	"UI/buttonclickrelease.wav"

			"border_default"	"MainMenuMiniButtonDefault"
			"border_armed"		"MainMenuMiniButtonArmed"
			"paintbackground"	"0"

			"defaultFgColor_override" "46 43 42 255"
			"armedFgColor_override" "46 43 42 255"
			"depressedFgColor_override" "46 43 42 255"

			"image_drawcolor"	"235 226 202 255"
			"image_armedcolor"	"235 226 202 255"

			"SubImage"
			{
				"ControlName"	"ImagePanel"
				"fieldName"		"SubImage"
				"xpos"			"4"
				"ypos"			"4"
				"zpos"			"1"
				"wide"			"12"
				"tall"			"12"
				"visible"		"1"
				"enabled"		"1"
				"image"			"glyph_options"
				"scaleImage"	"1"
			}
		}
	}
	"CoachPlayersButton"
	{
		"ControlName"	"EditablePanel"
		"fieldname"		"CoachPlayersButton"
		"xpos"			"c-85"
		"ypos"			"154"
		"zpos"			"10"
		"wide"			"20"
		"tall"			"20"
		"visible"		"1"

		"SubButton"
		{
			"ControlName"	"CExImageButton"
			"fieldName"		"SubButton"
			"xpos"			"0"
			"ypos"			"0"
			"wide"			"20"
			"tall"			"20"
			"autoResize"	"0"
			"pinCorner"		"3"
			"visible"		"1"
			"enabled"		"1"
			"tabPosition"	"0"
			"textinsetx"	"100"
			"use_proportional_insets" "1"
			"font"			"HudFontSmallBold"
			"textAlignment"	"west"
			"dulltext"		"0"
			"brighttext"	"0"
			"default"		"1"
			"sound_depressed"	"UI/buttonclick.wav"
			"sound_released"	"UI/buttonclickrelease.wav"

			"border_default"	"MainMenuMiniButtonDefault"
			"border_armed"		"MainMenuMiniButtonArmed"
			"paintbackground"	"0"

			"defaultFgColor_override" "46 43 42 255"
			"armedFgColor_override" "46 43 42 255"
			"depressedFgColor_override" "46 43 42 255"

			"image_drawcolor"	"235 226 202 255"
			"image_armedcolor"	"235 226 202 255"

			"SubImage"
			{
				"ControlName"	"ImagePanel"
				"fieldName"		"SubImage"
				"xpos"			"4"
				"ypos"			"4"
				"zpos"			"1"
				"wide"			"12"
				"tall"			"12"
				"visible"		"1"
				"enabled"		"1"
				"image"			"glyph_commentary"
				"scaleImage"	"1"
			}
		}
	}

	"TooltipPanel"
	{
		"ControlName"	"EditablePanel"
		"fieldName"		"TooltipPanel"
		"xpos"			"0"
		"ypos"			"0"
		"zpos"			"1"
		"wide"			"150"
		"tall"			"50"
		"visible"		"0"
		"PaintBackgroundType"	"2"
		"border"		"MainMenuBGBorder"

		"TipSubLabel"
		{
			"ControlName"	"CExLabel"
			"fieldName"		"TipSubLabel"
			"font"			"HudFontSmall"
			"labelText"		"%tipsubtext%"
			"textAlignment"	"center"
			"xpos"			"20"
			"ypos"			"30"
			"zpos"			"2"
			"wide"			"250"
			"tall"			"50"
			"autoResize"	"0"
			"pinCorner"		"0"
			"visible"		"1"
			"enabled"		"1"
			"fgcolor_override"	"117 107 94 255"
			"wrap"			"1"
		}

		"TipLabel"
		{
			"ControlName"	"CExLabel"
			"fieldName"		"TipLabel"
			"font"			"HudFontSmallBold"
			"labelText"		"%tiptext%"
			"textAlignment"	"center"
			"xpos"			"20"
			"ypos"			"5"
			"zpos"			"2"
			"wide"			"140"
			"tall"			"30"
			"autoResize"	"0"
			"pinCorner"		"0"
			"visible"		"1"
			"enabled"		"1"
			"fgcolor_override"	"235 226 202 255"
			"auto_wide_tocontents" "1"
		}
	}

    "MOTD_ShowButtonPanel"
	{
		"ControlName"	"EditablePanel"
		"fieldName"		"MOTD_ShowButtonPanel"
		"xpos"			"c200"
		"ypos"			"40"
		"zpos"			"1"
		"wide"			"32"
		"tall"			"32"
		"autoResize"	"0"
		"pinCorner"		"3"
		"visible"		"1"
		"enabled"		"1"

		"MOTD_ShowButtonPanel_SB"
		{
			"ControlName"	"CExImageButton"
			"fieldName"		"MOTD_ShowButtonPanel_SB"
			"xpos"			"0"
			"ypos"			"0"
			"zpos"			"1"
			"wide"			"32"
			"tall"			"32"
			"autoResize"	"0"
			"pinCorner"		"3"
			"visible"		"1"
			"enabled"		"1"
			"tabPosition"	"0"
			"labelText"		""
			"font"			"HudFontSmallestBold"
			"textAlignment"	"center"
			"dulltext"		"0"
			"brighttext"	"0"
			"default"		"1"
			"Command"		"motd_show"
			"sound_depressed"	"UI/buttonclick.wav"
			"sound_released"	"UI/buttonclickrelease.wav"
			"paintbackground" "0"
			"image_drawcolor"	"235 226 202 255"
			"image_armedcolor"	"255 255 255 255"

			"SubImage"
			{
				"ControlName"	"ImagePanel"
				"fieldName"		"SubImage"
				"xpos"			"0"
				"ypos"			"0"
				"zpos"			"1"
				"wide"			"32"
				"tall"			"32"
				"visible"		"1"
				"enabled"		"1"
				"image"			"button_MOTD"
				"scaleImage"	"1"
			}
		}
	}

	"MOTD_Panel"
	{
		"ControlName"	"EditablePanel"
		"fieldName"		"MOTD_Panel"
		"xpos"			"c0"
		"ypos"			"28"
		"zpos"			"1"
		"wide"			"300"
		"tall"			"360"
		"visible"		"0"
		"PaintBackgroundType"	"2"
		"paintbackground"	"0"
		"border"		"MainMenuHighlightBorder"

		"MOTD_HeaderContainer"
		{
			"ControlName"	"EditablePanel"
			"fieldName"		"MOTD_HeaderContainer"
			"xpos"			"0"
			"ypos"			"0"
			"wide"			"300"
			"tall"			"22"
			"visible"		"1"

			"MOTD_HeaderLabel"
			{
				"ControlName"	"CExLabel"
				"fieldName"		"MOTD_HeaderLabel"
				"font"			"HudFontSmallBold"
				"textAlignment"	"center"
				"labelText"		"%motdheader%"
				"xpos"			"0"
				"ypos"			"0"
				"wide"			"300"
				"tall"			"24"
				"autoResize"	"0"
				"pinCorner"		"0"
				"visible"		"1"
				"enabled"		"1"
				"PaintBackgroundType" "2"
				"fgcolor_override"	"235 226 202 255"
				"bgcolor_override"	"141 178 61 255"
			}
		}

		"MOTD_CloseButton"
		{
			"ControlName"	"CExImageButton"
			"fieldName"		"MOTD_CloseButton"
			"xpos"			"282"
			"ypos"			"4"
			"zpos"			"10"
			"wide"			"14"
			"tall"			"14"
			"autoResize"	"0"
			"pinCorner"		"0"
			"visible"		"1"
			"enabled"		"1"
			"tabPosition"	"0"
			"labeltext"		""
			"font"			"HudFontSmallBold"
			"textAlignment"	"center"
			"dulltext"		"0"
			"brighttext"	"0"
			"default"		"0"
			"sound_depressed"	"UI/buttonclick.wav"
			"sound_released"	"UI/buttonclickrelease.wav"
			"Command"		"motd_hide"

			"paintbackground"	"0"

			//"defaultFgColor_override" "235 226 202 255"
			//"armedFgColor_override" "46 43 42 255"
			"defaultFgColor_override" "46 43 42 255"
			"armedFgColor_override" "235 226 202 255"
			"depressedFgColor_override" "46 43 42 255"

			"image_drawcolor"	"235 226 202 255"
			"image_armedcolor"	"200 80 60 255"
			"SubImage"
			{
				"ControlName"	"ImagePanel"
				"fieldName"		"SubImage"
				"xpos"			"0"
				"ypos"			"0"
				"zpos"			"1"
				"wide"			"14"
				"tall"			"14"
				"visible"		"1"
				"enabled"		"1"
				"image"			"close_button"
				"scaleImage"	"1"
			}
		}

		"MOTD_HeaderIcon"
		{
			"ControlName"	"ImagePanel"
			"fieldName"		"MOTD_HeaderIcon"
			"xpos"			"265"
			"ypos"			"25"
			"zpos"			"100"
			"wide"			"25"
			"tall"			"25"
			"visible"		"0"
			"enabled"		"1"
			"image"			"class_icons/filter_all_motd"
			"scaleImage"	"1"
		}

		"MOTD_TitleLabel"
		{
			"ControlName"	"CExLabel"
			"fieldName"		"MOTD_TitleLabel"
			"font"			"HudFontSmallBold"
			"labelText"		"%motdtitle%"
			"textAlignment"	"west"
			"xpos"			"10"
			"ypos"			"25"
			"wide"			"250"
			"tall"			"15"
			"autoResize"	"0"
			"pinCorner"		"0"
			"visible"		"1"
			"enabled"		"1"
			"fgcolor_override"	"46 43 42 255"
			"wrap"			"1"
		}

		"MOTD_Label"
		{
			"ControlName"	"CExLabel"
			"fieldName"		"MOTD_Label"
			"font"			"HudFontSmall"
			"labelText"		"%motddate%"
			"textAlignment"	"north-west"
			"xpos"			"10"
			"ypos"			"40"
			"wide"			"300"
			"tall"			"15"
			"autoResize"	"0"
			"pinCorner"		"0"
			"visible"		"1"
			"enabled"		"1"
			"fgcolor_override"	"46 43 42 255"
		}

		"MOTD_TitleImageBg"
		{
			"ControlName"	"ImagePanel"
			"fieldName"		"MOTD_TitleImageBg"
			"xpos"			"10"
			"ypos"			"55"
			"zpos"			"99"
			"wide"			"280"
			"tall"			"180"
			"visible"		"1"
			"enabled"		"1"
			"image"			"item_bg"
			"scaleImage"	"1"
		}

		"MOTD_TitleImageContainer"
		{
			"ControlName"	"EditablePanel"
			"fieldName"		"MOTD_TitleImageContainer"
			"xpos"			"10"
			"ypos"			"55"
			"zpos"			"100"
			"wide"			"280"
			"tall"			"180"
			"visible"		"1"

			"MOTD_TitleImage"
			{
				"ControlName"	"ImagePanel"
				"fieldName"		"MOTD_TitleImage"
				"xpos"			"0"
				"ypos"			"0"
				"zpos"			"100"
				"wide"			"280"
				"tall"			"280"
				"visible"		"1"
				"enabled"		"1"
				"image"			"class_icons/filter_all"
				"scaleImage"	"0"
			}
		}

		"MOTD_TextScroller"
		{
			"ControlName"	"ScrollableEditablePanel"
			"fieldName"		"MOTD_TextScroller"
			"xpos"			"20"
			"ypos"			"240"
			"wide"			"280"
			"tall"			"95"
			"PaintBackgroundType"	"2"
			"fgcolor_override"	"117 107 94 255"

			"MOTD_TextPanel"
			{
				"ControlName"	"EditablePanel"
				"fieldName"		"MOTD_TextPanel"
				"xpos"			"0"
				"ypos"			"0"
				"wide"			"250"
				"tall"			"300"
				"visible"		"1"
				"PaintBackgroundType"	"2"

				"MOTD_TextLabel"
				{
					"ControlName"	"CExLabel"
					"fieldName"		"MOTD_TextLabel"
					"font"			"HudFontSmall"
					"labelText"		"%motdtext%"
					"textAlignment"	"north-west"
					"xpos"			"0"
					"ypos"			"0"
					"wide"			"250"
					"tall"			"300"
					"autoResize"	"0"
					"pinCorner"		"0"
					"visible"		"1"
					"enabled"		"1"
					"fgcolor_override"	"46 43 42 255"
					"wrap"			"1"
				}
			}
		}

		"MOTD_URLButton"
		{
			"ControlName"	"CExButton"
			"fieldName"		"MOTD_URLButton"
			"xpos"			"75"
			"ypos"			"339"
			"wide"			"150"
			"tall"			"15"
			"autoResize"	"0"
			"pinCorner"		"3"
			"visible"		"1"
			"enabled"		"1"
			"tabPosition"	"0"
			"labelText"		"#MMenu_MOTD_URL"
			"textinsetx"	"20"
			"use_proportional_insets" "1"
			"font"			"HudFontSmallestBold"
			"textAlignment"	"center"
			"dulltext"		"0"
			"brighttext"	"0"
			"default"		"1"
			"command"		"motd_viewurl"
			"sound_depressed"	"UI/buttonclick.wav"
			"sound_released"	"UI/buttonclickrelease.wav"

			"defaultFgColor_override" "235 226 202 255"
			"defaultBgColor_override" "46 43 42 255"
			"armedFgColor_override" "235 226 202 255"
			"depressedFgColor_override" "235 226 202 255"
		}

		"MOTD_PrevButton"
		{
			"ControlName"	"CExImageButton"
			"fieldName"		"MOTD_PrevButton"
			"xpos"			"12"
			"ypos"			"336"
			"zpos"			"1"
			"wide"			"20"
			"tall"			"20"
			"autoResize"	"0"
			"pinCorner"		"3"
			"visible"		"1"
			"enabled"		"1"
			"tabPosition"	"0"
			"labelText"		""
			"font"			"HudFontSmallBold"
			"textAlignment"	"center"
			"dulltext"		"0"
			"brighttext"	"0"
			"default"		"1"
			"Command"		"motd_prev"
			"sound_depressed"	"UI/buttonclick.wav"
			"sound_released"	"UI/buttonclickrelease.wav"
			"paintbackground" "0"

			"image_drawcolor"	"235 226 202 255"
			"image_armedcolor"	"255 255 255 255"
			"SubImage"
			{
				"ControlName"	"ImagePanel"
				"fieldName"		"SubImage"
				"xpos"			"0"
				"ypos"			"0"
				"zpos"			"1"
				"wide"			"20"
				"tall"			"20"
				"visible"		"1"
				"enabled"		"1"
				"image"			"blog_back"
				"scaleImage"	"1"
			}
		}

		"MOTD_NextButton"
		{
			"ControlName"	"CExImageButton"
			"fieldName"		"MOTD_NextButton"
			"xpos"			"267"
			"ypos"			"336"
			"zpos"			"1"
			"wide"			"20"
			"tall"			"20"
			"autoResize"	"0"
			"pinCorner"		"3"
			"visible"		"1"
			"enabled"		"1"
			"tabPosition"	"0"
			"labelText"		""
			"font"			"HudFontSmallBold"
			"textAlignment"	"center"
			"dulltext"		"0"
			"brighttext"	"0"
			"default"		"1"
			"Command"		"motd_next"
			"sound_depressed"	"UI/buttonclick.wav"
			"sound_released"	"UI/buttonclickrelease.wav"
			"paintbackground" "0"

			"image_drawcolor"	"235 226 202 255"
			"image_armedcolor"	"255 255 255 255"
			"SubImage"
			{
				"ControlName"	"ImagePanel"
				"fieldName"		"SubImage"
				"xpos"			"0"
				"ypos"			"0"
				"zpos"			"1"
				"wide"			"20"
				"tall"			"20"
				"visible"		"1"
				"enabled"		"1"
				"image"			"blog_forward"
				"scaleImage"	"1"
			}
		}
	}

	"Notifications_ShowButtonPanel"
	{
		"ControlName"	"EditablePanel"
		"fieldName"		"Notifications_ShowButtonPanel"
		"xpos"			"c165"
		"ypos"			"40"
		"zpos"			"1"
		"wide"			"32"
		"tall"			"32"
		"autoResize"	"0"
		"pinCorner"		"3"
		"visible"		"1"
		"enabled"		"1"

		"SubImage"
		{
			"ControlName"	"ImagePanel"
			"fieldName"		"SubImage"
			"xpos"			"16"
			"ypos"			"0"
			"zpos"			"3"
			"wide"			"16"
			"tall"			"16"
			"visible"		"1"
			"enabled"		"1"
			"image"			"glyph_achievements"
			"scaleImage"	"1"
			"drawcolor" "210 125 33 255"
		}

		"Notifications_CountLabel"
		{
			"ControlName"	"CExLabel"
			"fieldName"		"Notifications_CountLabel"
			"font"			"HudFontSmallestBold"
			"labelText"		"%noticount%"
			"textAlignment"	"center"
			"xpos"			"16"
			"ypos"			"0"
			"zpos"			"4"
			"wide"			"16"
			"tall"			"16"
			"autoResize"	"0"
			"pinCorner"		"0"
			"visible"		"1"
			"enabled"		"1"
			"fgcolor_override"	"255 255 255 255"
		}

		"Notifications_ShowButtonPanel_SB"
		{
			"ControlName"	"CExImageButton"
			"fieldName"		"Notifications_ShowButtonPanel_SB"
			"xpos"			"0"
			"ypos"			"0"
			"zpos"			"1"
			"wide"			"32"
			"tall"			"32"
			"autoResize"	"0"
			"pinCorner"		"3"
			"visible"		"1"
			"enabled"		"1"
			"tabPosition"	"0"
			"labelText"		""
			"font"			"HudFontSmallestBold"
			"textAlignment"	"center"
			"dulltext"		"0"
			"brighttext"	"0"
			"default"		"1"
			"Command"		"noti_show"
			"sound_depressed"	"UI/buttonclick.wav"
			"sound_released"	"UI/buttonclickrelease.wav"
			"paintbackground" "0"
			"image_drawcolor"	"235 226 202 255"
			"image_armedcolor"	"255 255 255 255"

			"SubImage"
			{
				"ControlName"	"ImagePanel"
				"fieldName"		"SubImage"
				"xpos"			"0"
				"ypos"			"0"
				"zpos"			"1"
				"wide"			"32"
				"tall"			"32"
				"visible"		"1"
				"enabled"		"1"
				"image"			"button_Alert"
				"scaleImage"	"1"
			}
		}
	}

	"Notifications_Panel"
	{
		"ControlName"	"EditablePanel"
		"fieldName"		"Notifications_Panel"
		"xpos"			"c0"
		"ypos"			"102"
		"zpos"			"1"
		"wide"			"210"
		"tall"			"80"
		"visible"		"0"
		"PaintBackgroundType"	"2"
		"paintbackground"	"0"
		"border"		"MainMenuHighlightBorder"

		"Notifications_CloseButton"
		{
			"ControlName"	"CExImageButton"
			"fieldName"		"Notifications_CloseButton"
			"xpos"			"186"
			"ypos"			"8"
			"zpos"			"10"
			"wide"			"14"
			"tall"			"14"
			"autoResize"	"0"
			"pinCorner"		"0"
			"visible"		"1"
			"enabled"		"1"
			"tabPosition"	"0"
			"labeltext"		""
			"font"			"HudFontSmallBold"
			"textAlignment"	"center"
			"dulltext"		"0"
			"brighttext"	"0"
			"default"		"0"
			"sound_depressed"	"UI/buttonclick.wav"
			"sound_released"	"UI/buttonclickrelease.wav"
			"Command"		"noti_hide"

			"paintbackground"	"0"

			"defaultFgColor_override" "46 43 42 255"
			"armedFgColor_override" "235 226 202 255"
			"depressedFgColor_override" "46 43 42 255"

			"image_drawcolor"	"117 107 94 255"
			"image_armedcolor"	"200 80 60 255"
			"SubImage"
			{
				"ControlName"	"ImagePanel"
				"fieldName"		"SubImage"
				"xpos"			"0"
				"ypos"			"0"
				"zpos"			"1"
				"wide"			"14"
				"tall"			"14"
				"visible"		"1"
				"enabled"		"1"
				"image"			"close_button"
				"scaleImage"	"1"
			}
		}

		"Notifications_TitleLabel"
		{
			"ControlName"	"CExLabel"
			"fieldName"		"Notifications_TitleLabel"
			"font"			"HudFontSmallBold"
			"labelText"		"%notititle%"
			"textAlignment"	"north-west"
			"xpos"			"12"
			"ypos"			"8"
			"wide"			"250"
			"tall"			"20"
			"autoResize"	"0"
			"pinCorner"		"0"
			"visible"		"1"
			"enabled"		"1"
			"fgcolor_override"	"46 43 42 255"
			"wrap"			"1"
		}

		"Notifications_Scroller"
		{
			"ControlName"	"ScrollableEditablePanel"
			"fieldName"		"Notifications_Scroller"
			"xpos"			"8"
			"ypos"			"25"
			"wide"			"210"
			"tall"			"135"
			"PaintBackgroundType"	"2"
			"fgcolor_override"	"117 107 94 255"

			"Notifications_Control"
			{
				"ControlName"	"CMainMenuNotificationsControl"
				"fieldName"		"Notifications_Control"
				"xpos"			"0"
				"ypos"			"0"
				"wide"			"220"
				"tall"			"135"
				"visible"		"1"
			}
		}
	}
	"GeneralStoreButton"
	{
		"ControlName"	"EditablePanel"
		"fieldname"		"GeneralStoreButton"
		"xpos"			"c-65"
		"ypos"			"184"
		"zpos"			"10"
		"wide"			"20"
		"tall"			"20"
		"visible"		"1"

		"SubButton"
		{
			"ControlName"	"CExImageButton"
			"fieldName"		"SubButton"
			"xpos"			"0"
			"ypos"			"0"
			"wide"			"20"
			"tall"			"20"
			"autoResize"	"0"
			"pinCorner"		"3"
			"visible"		"1"
			"enabled"		"1"
			"tabPosition"	"0"
			"textinsetx"	"100"
			"use_proportional_insets" "1"
			"font"			"HudFontSmallBold"
			"textAlignment"	"west"
			"dulltext"		"0"
			"brighttext"	"0"
			"default"		"1"
			"sound_depressed"	"UI/buttonclick.wav"
			"sound_released"	"UI/buttonclickrelease.wav"

			"border_default"	"MainMenuMiniButtonDefault"
			"border_armed"		"MainMenuMiniButtonArmed"
			"paintbackground"	"0"

			"defaultFgColor_override" "46 43 42 255"
			"armedFgColor_override" "46 43 42 255"
			"depressedFgColor_override" "46 43 42 255"

			"image_drawcolor"	"235 226 202 255"
			"image_armedcolor"	"235 226 202 255"

			"SubImage"
			{
				"ControlName"	"ImagePanel"
				"fieldName"		"SubImage"
				"xpos"			"4"
				"ypos"			"4"
				"zpos"			"1"
				"wide"			"12"
				"tall"			"12"
				"visible"		"1"
				"enabled"		"1"
				"image"			"glyph_store"
				"scaleImage"	"1"
			}
		}
	}
	"AchievementsButton"
	{
		"ControlName"	"EditablePanel"
		"fieldname"		"AchievementsButton"
		"xpos"			"c-85"
		"ypos"			"184"
		"zpos"			"10"
		"wide"			"20"
		"tall"			"20"
		"visible"		"1"

		"SubButton"
		{
			"ControlName"	"CExImageButton"
			"fieldName"		"SubButton"
			"xpos"			"0"
			"ypos"			"0"
			"wide"			"20"
			"tall"			"20"
			"autoResize"	"0"
			"pinCorner"		"3"
			"visible"		"1"
			"enabled"		"1"
			"tabPosition"	"0"
			"textinsetx"	"100"
			"use_proportional_insets" "1"
			"font"			"HudFontSmallBold"
			"textAlignment"	"west"
			"dulltext"		"0"
			"brighttext"	"0"
			"default"		"1"
            "Command"		"OpenAchievementsDialog"
			"sound_depressed"	"UI/buttonclick.wav"
			"sound_released"	"UI/buttonclickrelease.wav"

			"border_default"	"MainMenuMiniButtonDefault"
			"border_armed"		"MainMenuMiniButtonArmed"
			"paintbackground"	"0"

			"defaultFgColor_override" "46 43 42 255"
			"armedFgColor_override" "46 43 42 255"
			"depressedFgColor_override" "46 43 42 255"

			"image_drawcolor"	"235 226 202 255"
			"image_armedcolor"	"235 226 202 255"

			"SubImage"
			{
				"ControlName"	"ImagePanel"
				"fieldName"		"SubImage"
				"xpos"			"4"
				"ypos"			"4"
				"zpos"			"1"
				"wide"			"12"
				"tall"			"12"
				"visible"		"1"
				"enabled"		"1"
				"image"			"glyph_achievements"
				"scaleImage"	"1"
			}
		}
	}
	"ReplayBrowserButton"
	{
		"ControlName"	"EditablePanel"
		"fieldname"		"ReplayBrowserButton"
		"xpos"			"c-105"
		"ypos"			"184"
		"zpos"			"10"
		"wide"			"20"
		"tall"			"20"
		"visible"		"1"

		"SubButton"
		{
			"ControlName"	"CExImageButton"
			"fieldName"		"SubButton"
			"xpos"			"0"
			"ypos"			"0"
			"wide"			"20"
			"tall"			"20"
			"autoResize"	"0"
			"pinCorner"		"3"
			"visible"		"1"
			"enabled"		"1"
			"tabPosition"	"0"
			"textinsetx"	"100"
			"use_proportional_insets" "1"
			"font"			"HudFontSmallBold"
			"textAlignment"	"west"
			"dulltext"		"0"
			"brighttext"	"0"
			"default"		"1"
			"sound_depressed"	"UI/buttonclick.wav"
			"sound_released"	"UI/buttonclickrelease.wav"

			"border_default"	"MainMenuMiniButtonDefault"
			"border_armed"		"MainMenuMiniButtonArmed"
			"paintbackground"	"0"

			"defaultFgColor_override" "46 43 42 255"
			"armedFgColor_override" "46 43 42 255"
			"depressedFgColor_override" "46 43 42 255"

			"image_drawcolor"	"235 226 202 255"
			"image_armedcolor"	"235 226 202 255"

			"SubImage"
			{
				"ControlName"	"ImagePanel"
				"fieldName"		"SubImage"
				"xpos"			"4"
				"ypos"			"4"
				"zpos"			"1"
				"wide"			"12"
				"tall"			"12"
				"visible"		"1"
				"enabled"		"1"
				"image"			"glyph_tv"
				"scaleImage"	"1"
			}
		}
	}

	"SteamWorkshopButton"
	{
		"ControlName"	"EditablePanel"
		"fieldname"		"SteamWorkshopButton"
		"xpos"			"c-285"
		"ypos"			"357"
		"zpos"			"11"
		"wide"			"270"
		"tall"			"36"
		"visible"		"0"
        "enabled"       "0"
		"PaintBackgroundType"	"2"
		"SubButton"
		{
			"ControlName"	"CExImageButton"
			"fieldName"		"SubButton"
			"xpos"			"0"
			"ypos"			"0"
			"wide"			"250"
			"tall"			"26"
			"autoResize"	"0"
			"pinCorner"		"3"
			"visible"		"1"
			"enabled"		"1"
			"tabPosition"	"0"
			"textinsetx"	"25"
			"use_proportional_insets" "1"
			"font"			"HudFontSmallBold"
			"textAlignment"	"west"
			"dulltext"		"0"
			"brighttext"	"0"
			"default"		"1"
			"sound_depressed"	"UI/buttonclick.wav"
			"sound_released"	"UI/buttonclickrelease.wav"

			"border_default"	"MainMenuButtonDefault"
			"border_armed"		"MainMenuButtonArmed"
			"paintbackground"	"0"

			"defaultFgColor_override" "46 43 42 255"
			"armedFgColor_override" "235 226 202 255"
			"depressedFgColor_override" "46 43 42 255"

			"image_drawcolor"	"117 107 94 255"
			"image_armedcolor"	"235 226 202 255"
			"SubImage"
			{
				"ControlName"	"ImagePanel"
				"fieldName"		"SubImage"
				"xpos"			"6"
				"ypos"			"6"
				"zpos"			"1"
				"wide"			"14"
				"tall"			"14"
				"visible"		"1"
				"enabled"		"1"
				"scaleImage"	"1"
			}
		}
	}

    "VRModeButton"
	{
		"ControlName"	"EditablePanel"
		"fieldname"		"VRModeButton"
		"xpos"			"c-285"
		"ypos"			"379"
		"zpos"			"11"
		"wide"			"270"
		"tall"			"36"
		"visible"		"0"
		"PaintBackgroundType"	"2"

		"navUp"			"ReplayBrowserButton"
		"navDown"		"QuitButton"
		"navRight"		"Notifications_ShowButtonPanel"
		"navToRelay"	"SubButton"

		"SubButton"
		{
			"ControlName"	"CExImageButton"
			"fieldName"		"SubButton"
			"xpos"			"0"
			"ypos"			"0"
			"wide"			"250"
			"tall"			"26"
			"autoResize"	"0"
			"pinCorner"		"3"
			"visible"		"1"
			"enabled"		"1"
			"tabPosition"	"0"
			"textinsetx"	"25"
			"use_proportional_insets" "1"
			"font"			"HudFontSmallBold"
			"textAlignment"	"west"
			"dulltext"		"0"
			"brighttext"	"0"
			"default"		"1"
			"sound_depressed"	"UI/buttonclick.wav"
			"sound_released"	"UI/buttonclickrelease.wav"

			"border_default"	"MainMenuButtonDefault"
			"border_armed"		"MainMenuButtonArmed"
			"paintbackground"	"0"

			"defaultFgColor_override" "46 43 42 255"
			"armedFgColor_override" "235 226 202 255"
			"depressedFgColor_override" "46 43 42 255"

			"image_drawcolor"	"117 107 94 255"
			"image_armedcolor"	"235 226 202 255"
			"SubImage"
			{
				"ControlName"	"ImagePanel"
				"fieldName"		"SubImage"
				"xpos"			"6"
				"ypos"			"6"
				"zpos"			"1"
				"wide"			"14"
				"tall"			"14"
				"visible"		"1"
				"enabled"		"1"
				"scaleImage"	"1"
			}
		}
	}

	"VRBGPanel"
	{
		"ControlName"	"EditablePanel"
		"fieldName"		"VRBGPanel"
		"xpos"			"c-290"
		"ypos"			"373"
		"zpos"			"-1"
		"wide"			"260"
		"tall"			"38"
		"visible"		"1"
		"PaintBackgroundType"	"2"
		"border"		"MainMenuBGBorder"
	}

	"ShowPromoCodesButton"
	{
		"ControlName"	"CExImageButton"
		"fieldName"		"ShowPromoCodesButton"
		"xpos"			"c-285"
		"ypos"			"397"
		"wide"			"250"
		"tall"			"20"
		"autoResize"	"0"
		"pinCorner"		"3"
		"visible"		"1"
		"enabled"		"1"
		"tabPosition"	"0"
		"font"			"HudFontSmallestBold"
		"labelText"		"#MMenu_ShowPromoCodes"
		"textAlignment"	"center"
		"dulltext"		"0"
		"brighttext"	"0"
		"default"		"1"
		"sound_depressed"	"UI/buttonclick.wav"
		"sound_released"	"UI/buttonclickrelease.wav"
		"command"		"showpromocodes"

		"border_default"	"MainMenuButtonDefault"
		"border_armed"		"MainMenuButtonArmed"
		"paintbackground"	"0"

		"defaultFgColor_override" "46 43 42 255"
		"armedFgColor_override" "235 226 202 255"
		"depressedFgColor_override" "46 43 42 255"
	}
	"FreeTrialPanel"
	{
		"ControlName"	"EditablePanel"
		"fieldName"		"FreeTrialPanel"
		"xpos"			"c-300"
		"ypos"			"310"
		"zpos"			"0"
		"wide"			"250"
		"tall"			"130"
		"visible"		"0"

		"Image"
		{
			"ControlName"	"ImagePanel"
			"fieldName"		"Image"
			"xpos"			"0"
			"ypos"			"0"
			"zpos"			"0"
			"wide"			"80"
			"tall"			"80"
			"visible"		"1"
			"enabled"		"1"
			"image"			"tf_box"
			"scaleImage"	"1"
		}

		"UpgradeLabel1"
		{
			"ControlName"	"CExLabel"
			"fieldName"		"UpgradeLabel"
			"font"			"HudFontSmallestBold"
			"labelText"		"#TF_Trial_MainMenu_Upgrade1"
			"textAlignment"	"north"
			"xpos"			"80"
			"ypos"			"5"
			"wide"			"165"
			"tall"			"80"
			"autoResize"	"0"
			"pinCorner"		"0"
			"visible"		"1"
			"enabled"		"1"
			"wrap"			"1"
		}
		"UpgradeLabel2"
		{
			"ControlName"	"CExLabel"
			"fieldName"		"UpgradeLabel2"
			"font"			"HudFontSmallBold"
			"labelText"		"#TF_Trial_MainMenu_Upgrade2"
			"textAlignment"	"north"
			"xpos"			"80"
			"ypos"			"18"
			"wide"			"165"
			"tall"			"80"
			"autoResize"	"0"
			"pinCorner"		"0"
			"visible"		"1"
			"enabled"		"1"
			"wrap"			"1"
			"fgcolor"		"255 155 138 255"
		}
		"UpgradeLabel3"
		{
			"ControlName"	"CExLabel"
			"fieldName"		"UpgradeLabel3"
			"font"			"HudFontSmallestBold"
			"labelText"		"#TF_Trial_MainMenu_Upgrade3"
			"textAlignment"	"north"
			"xpos"			"80"
			"ypos"			"48"
			"wide"			"165"
			"tall"			"80"
			"autoResize"	"0"
			"pinCorner"		"0"
			"visible"		"1"
			"enabled"		"1"
			"wrap"			"1"
			"fgcolor"		"137 134 127 255"
		}
	}




    //scoreboard options
	"ScoreboardOptionsPanel"
	{
		"ControlName"	"EditablePanel"
		"fieldName"		"ScoreboardOptionsPanel"
		"xpos"			"c-290"
		"ypos"			"220"
		"zpos"			"-1"
		"wide"			"260"
		"tall"			"60"
		"visible"		"1"
		"pinCorner"		"0"
		"autoResize"	"0"
		"PaintBackgroundType"	"2"
		"border"		"MainMenuBGBorder"
	}
	"ScoreboardOptionsLabel"
	{
		"ControlName"	"CExLabel"
		"fieldName"		"ScoreboardOptionsLabel"
		"font"			"HudFontSmallBold"
		"labelText"		"Scoreboard Type"
		"textAlignment"	"west"
		"xpos"			"c-278"
		"ypos"			"221"
		"wide"			"140"
		"tall"			"30"
		"autoResize"	"0"
		"pinCorner"		"0"
		"visible"		"1"
		"enabled"		"1"
		"fgcolor_override"	"235 227 203 255"
        "OnlyInGame"    "1"
	}

    "6v6Button"
	{
		"ControlName"	"EditablePanel"
		"fieldname"		"6v6Button"
		"xpos"			"c-285"
		"ypos"			"249"
		"zpos"			"11"
		"wide"			"130"
		"tall"			"36"
		"visible"		"1"
		"PaintBackgroundType"	"2"
		"SubButton"
		{
			"ControlName"	"CExImageButton"
			"fieldName"		"SubButton"
			"xpos"			"0"
			"ypos"			"0"
			"wide"			"125"
			"tall"			"26"
			"autoResize"	"0"
			"pinCorner"		"3"
			"visible"		"1"
			"enabled"		"1"
			"tabPosition"	"0"
			"textinsetx"	"0"//"25"
			"use_proportional_insets" "1"
			"font"			"HudFontSmallBold"
			"textAlignment"	"center"//"west"
			"dulltext"		"0"
			"brighttext"	"0"
			"default"		"1"
			"sound_depressed"	"UI/buttonclick.wav"
			"sound_released"	"UI/buttonclickrelease.wav"

			"border_default"	"MainMenuButtonDefault"
			"border_armed"		"MainMenuButtonArmed"
			"paintbackground"	"0"

			"defaultFgColor_override" "46 43 42 255"
			"armedFgColor_override" "235 226 202 255"
			"depressedFgColor_override" "46 43 42 255"

			"image_drawcolor"	"117 107 94 255"
			"image_armedcolor"	"235 226 202 255"
			"SubImage"
			{
				"ControlName"	"ImagePanel"
				"fieldName"		"SubImage"
				"xpos"			"6"
				"ypos"			"6"
				"zpos"			"1"
				"wide"			"14"
				"tall"			"14"
				"visible"		"1"
				"enabled"		"1"
				"scaleImage"	"1"
			}
		}
	}
    "16v16Button"
	{
		"ControlName"	"EditablePanel"
		"fieldname"		"16v16Button"
		"xpos"			"c-160"
		"ypos"			"249"
		"zpos"			"11"
		"wide"			"135"
		"tall"			"36"
		"visible"		"1"
		"PaintBackgroundType"	"2"
		"SubButton"
		{
			"ControlName"	"CExImageButton"
			"fieldName"		"SubButton"
			"xpos"			"0"
			"ypos"			"0"
			"wide"			"125"
			"tall"			"26"
			"autoResize"	"0"
			"pinCorner"		"3"
			"visible"		"1"
			"enabled"		"1"
			"tabPosition"	"0"
			"textinsetx"	"0"//"25"
			"use_proportional_insets" "1"
			"font"			"HudFontSmallBold"
			"textAlignment"	"center"//"west"
			"dulltext"		"0"
			"brighttext"	"0"
			"default"		"1"
			"sound_depressed"	"UI/buttonclick.wav"
			"sound_released"	"UI/buttonclickrelease.wav"

			"border_default"	"MainMenuButtonDefault"
			"border_armed"		"MainMenuButtonArmed"
			"paintbackground"	"0"

			"defaultFgColor_override" "46 43 42 255"
			"armedFgColor_override" "235 226 202 255"
			"depressedFgColor_override" "46 43 42 255"

			"image_drawcolor"	"117 107 94 255"
			"image_armedcolor"	"235 226 202 255"
			"SubImage"
			{
				"ControlName"	"ImagePanel"
				"fieldName"		"SubImage"
				"xpos"			"6"
				"ypos"			"6"
				"zpos"			"1"
				"wide"			"14"
				"tall"			"14"
				"visible"		"1"
				"enabled"		"1"
				"scaleImage"	"1"
			}
		}
	}
    //end scoreboard options

	"BackToReplaysButton"
	{
		"ControlName"	"CExImageButton"
		"fieldName"		"BackToReplaysButton"
		"xpos"			"c-300"
		"ypos"			"437"
		"zpos"			"1"
		"wide"			"170"
		"tall"			"25"
		"autoResize"	"0"
		"pinCorner"		"3"
		"visible"		"0"
		"enabled"		"1"
		"tabPosition"	"0"
		"labelText"		"#GameUI_GameMenu_ExitReplay"
		"font"			"HudFontSmallBold"
		"textAlignment"	"west"
		"textinsetx"	"35"
		"use_proportional_insets" "1"
		"dulltext"		"0"
		"brighttext"	"0"
		"default"		"1"
		"Command"		"exitreplayeditor"
		"sound_depressed"	"UI/buttonclick.wav"
		"sound_released"	"UI/buttonclickrelease.wav"

		"image_drawcolor"	"235 226 202 255"
		"SubImage"
		{
			"ControlName"	"ImagePanel"
			"fieldName"		"SubImage"
			"xpos"			"16"
			"ypos"			"6"
			"zpos"			"1"
			"wide"			"14"
			"tall"			"14"
			"visible"		"1"
			"enabled"		"1"
			"scaleImage"	"1"
			"image"			"glyph_quit"
		}
	}

	"TutorialHighlight"
	{
		"ControlName"	"CExplanationPopup"
		"fieldName"		"TutorialHighlight"
		"xpos"			"c-285"
		"ypos"			"195"
		"zpos"			"100"
		"wide"			"250"
		"tall"			"120"
		"visible"		"0"
		"PaintBackgroundType"	"2"
		"paintbackground" "0"
		"border"		"MainMenuHighlightBorder"

		"start_x"		"c-85"
		"start_y"		"185"
		"start_wide"	"1"
		"start_tall"	"1"
		"end_x"			"c20"
		"end_y"			"120"
		"end_wide"		"250"
		"end_tall"		"120"
		"callout_inparents_x"	"c-40"
		"callout_inparents_y"	"195"

		"TitleLabel"
		{
			"ControlName"	"CExLabel"
			"fieldName"		"TitleLabel"
			"font"			"HudFontSmallBold"
			"labelText"		"%highlighttext%"
			"textAlignment"	"center"
			"xpos"			"20"
			"ypos"			"10"
			"wide"			"210"
			"tall"			"60"
			"autoResize"	"0"
			"pinCorner"		"0"
			"visible"		"1"
			"enabled"		"1"
			"wrap"			"1"
			"fgcolor_override" "46 43 42 255"
		}

		"TextLabel"
		{
			"ControlName"	"CExLabel"
			"fieldName"		"TextLabel"
			"font"			"HudFontSmall"
			"labelText"		"#MMenu_TutorialHighlight_Text"
			"textAlignment"	"south-west"
			"xpos"			"20"
			"ypos"			"60"
			"wide"			"210"
			"tall"			"20"
			"autoResize"	"0"
			"pinCorner"		"0"
			"visible"		"1"
			"enabled"		"1"
			"fgcolor_override" "46 43 42 255"
		}

		"TutorialHighlightButton"
		{
			"ControlName"	"EditablePanel"
			"fieldname"		"TutorialHighlightButton"
			"xpos"			"10"
			"ypos"			"85"
			"wide"			"230"
			"tall"			"26"
			"visible"		"1"

			"SubButton"
			{
				"ControlName"	"CExImageButton"
				"fieldName"		"SubButton"
				"xpos"			"0"
				"ypos"			"0"
				"wide"			"230"
				"tall"			"26"
				"autoResize"	"0"
				"pinCorner"		"3"
				"visible"		"1"
				"enabled"		"1"
				"tabPosition"	"0"
				"labeltext"		"#MMenu_TutorialHighlight_Button"
				"font"			"HudFontSmallBold"
				"textAlignment"	"center"
				"dulltext"		"0"
				"brighttext"	"0"
				"default"		"1"
				"sound_depressed"	"UI/buttonclick.wav"
				"sound_released"	"UI/buttonclickrelease.wav"
				"Command"		"tutorial"

				"border_default"	"MainMenuButtonDefault"
				"border_armed"		"MainMenuButtonArmed"
				"paintbackground"	"0"

				"defaultFgColor_override" "46 43 42 255"
				"armedFgColor_override" "235 226 202 255"
				"depressedFgColor_override" "46 43 42 255"

				"image_drawcolor"	"117 107 94 255"
				"image_armedcolor"	"235 226 202 255"
				"SubImage"
				{
					"ControlName"	"ImagePanel"
					"fieldName"		"SubImage"
					"xpos"			"6"
					"ypos"			"6"
					"zpos"			"1"
					"wide"			"14"
					"tall"			"14"
					"visible"		"1"
					"enabled"		"1"
					"scaleImage"	"1"
				}
			}
		}

		"CloseButton"
		{
			"ControlName"	"CExImageButton"
			"fieldName"		"CloseButton"
			"xpos"			"230"
			"ypos"			"5"
			"zpos"			"10"
			"wide"			"14"
			"tall"			"14"
			"autoResize"	"0"
			"pinCorner"		"0"
			"visible"		"1"
			"enabled"		"1"
			"tabPosition"	"0"
			"labeltext"		""
			"font"			"HudFontSmallBold"
			"textAlignment"	"center"
			"dulltext"		"0"
			"brighttext"	"0"
			"default"		"1"
			"sound_depressed"	"UI/buttonclick.wav"
			"sound_released"	"UI/buttonclickrelease.wav"
			"Command"		"close"

			"paintbackground"	"0"

			"defaultFgColor_override" "46 43 42 255"
			"armedFgColor_override" "235 226 202 255"
			"depressedFgColor_override" "46 43 42 255"

			"image_drawcolor"	"117 107 94 255"
			"image_armedcolor"	"200 80 60 255"
			"SubImage"
			{
				"ControlName"	"ImagePanel"
				"fieldName"		"SubImage"
				"xpos"			"0"
				"ypos"			"0"
				"zpos"			"1"
				"wide"			"14"
				"tall"			"14"
				"visible"		"1"
				"enabled"		"1"
				"image"			"close_button"
				"scaleImage"	"1"
			}
		}
	}

	"PracticeHighlight"
	{
		"ControlName"	"CExplanationPopup"
		"fieldName"		"PracticeHighlight"
		"zpos"			"100"
		"wide"			"250"
		"tall"			"120"
		"visible"		"0"
		"PaintBackgroundType"	"2"
		"paintbackground" "0"
		"border"		"MainMenuHighlightBorder"

		"start_x"		"c-85"
		"start_y"		"185"
		"start_wide"	"1"
		"start_tall"	"1"
		"end_x"			"c20"
		"end_y"			"120"
		"end_wide"		"250"
		"end_tall"		"120"
		"callout_inparents_x"	"c-40"
		"callout_inparents_y"	"195"

		"TitleLabel"
		{
			"ControlName"	"CExLabel"
			"fieldName"		"TitleLabel"
			"font"			"HudFontSmallBold"
			"labelText"		"#MMenu_PracticeHighlight_Title"
			"textAlignment"	"center"
			"xpos"			"20"
			"ypos"			"10"
			"wide"			"210"
			"tall"			"50"
			"autoResize"	"0"
			"pinCorner"		"0"
			"visible"		"1"
			"enabled"		"1"
			"wrap"			"1"
			"fgcolor_override" "46 43 42 255"
		}

		"TextLabel"
		{
			"ControlName"	"CExLabel"
			"fieldName"		"TextLabel"
			"font"			"HudFontSmall"
			"labelText"		"#MMenu_PracticeHighlight_Text"
			"textAlignment"	"south-west"
			"xpos"			"20"
			"ypos"			"50"
			"wide"			"210"
			"tall"			"30"
			"autoResize"	"0"
			"pinCorner"		"0"
			"visible"		"1"
			"enabled"		"1"
			"fgcolor_override" "46 43 42 255"
		}

		"PracticeHighlightButton"
		{
			"ControlName"	"EditablePanel"
			"fieldname"		"PracticeHighlightButton"
			"xpos"			"10"
			"ypos"			"85"
			"wide"			"230"
			"tall"			"26"
			"visible"		"1"

			"SubButton"
			{
				"ControlName"	"CExImageButton"
				"fieldName"		"SubButton"
				"xpos"			"0"
				"ypos"			"0"
				"wide"			"230"
				"tall"			"26"
				"autoResize"	"0"
				"pinCorner"		"3"
				"visible"		"1"
				"enabled"		"1"
				"tabPosition"	"0"
				"labeltext"		"#MMenu_PracticeHighlight_Button"
				"font"			"HudFontSmallBold"
				"textAlignment"	"center"
				"dulltext"		"0"
				"brighttext"	"0"
				"default"		"1"
				"sound_depressed"	"UI/buttonclick.wav"
				"sound_released"	"UI/buttonclickrelease.wav"
				"Command"		"offlinepractice"

				"border_default"	"MainMenuButtonDefault"
				"border_armed"		"MainMenuButtonArmed"
				"paintbackground"	"0"

				"defaultFgColor_override" "46 43 42 255"
				"armedFgColor_override" "235 226 202 255"
				"depressedFgColor_override" "46 43 42 255"

				"image_drawcolor"	"117 107 94 255"
				"image_armedcolor"	"235 226 202 255"
				"SubImage"
				{
					"ControlName"	"ImagePanel"
					"fieldName"		"SubImage"
					"xpos"			"6"
					"ypos"			"6"
					"zpos"			"1"
					"wide"			"14"
					"tall"			"14"
					"visible"		"1"
					"enabled"		"1"
					"scaleImage"	"1"
				}
			}
		}

		"CloseButton"
		{
			"ControlName"	"CExImageButton"
			"fieldName"		"CloseButton"
			"xpos"			"230"
			"ypos"			"5"
			"zpos"			"10"
			"wide"			"14"
			"tall"			"14"
			"autoResize"	"0"
			"pinCorner"		"0"
			"visible"		"1"
			"enabled"		"1"
			"tabPosition"	"0"
			"labeltext"		""
			"font"			"HudFontSmallBold"
			"textAlignment"	"center"
			"dulltext"		"0"
			"brighttext"	"0"
			"default"		"1"
			"sound_depressed"	"UI/buttonclick.wav"
			"sound_released"	"UI/buttonclickrelease.wav"
			"Command"		"close"

			"paintbackground"	"0"

			"defaultFgColor_override" "46 43 42 255"
			"armedFgColor_override" "235 226 202 255"
			"depressedFgColor_override" "46 43 42 255"

			"image_drawcolor"	"117 107 94 255"
			"image_armedcolor"	"200 80 60 255"
			"SubImage"
			{
				"ControlName"	"ImagePanel"
				"fieldName"		"SubImage"
				"xpos"			"0"
				"ypos"			"0"
				"zpos"			"1"
				"wide"			"14"
				"tall"			"14"
				"visible"		"1"
				"enabled"		"1"
				"image"			"close_button"
				"scaleImage"	"1"
			}
		}
	}

	"NewUserForumHighlight"
	{
		"ControlName"	"CExplanationPopup"
		"fieldName"		"NewUserForumHighlight"
		"xpos"			"c-55"
		"ypos"			"280"
		"zpos"			"100"
		"wide"			"250"
		"tall"			"120"
		"visible"		"0"
		"PaintBackgroundType"	"2"
		"paintbackground" "0"
		"border"		"MainMenuHighlightBorder"

		"start_x"		"c-112"
		"start_y"		"437"
		"start_wide"	"1"
		"start_tall"	"1"
		"end_x"			"c-205"
		"end_y"			"280"
		"end_wide"		"250"
		"end_tall"		"120"
		"callout_inparents_x"	"c-116"
		"callout_inparents_y"	"437"

		"TitleLabel"
		{
			"ControlName"	"CExLabel"
			"fieldName"		"TitleLabel"
			"font"			"HudFontSmallBold"
			"labelText"		"#MMenu_NewUserForumHighlight_Title"
			"textAlignment"	"north-west"
			"xpos"			"10"
			"ypos"			"10"
			"wide"			"210"
			"tall"			"20"
			"autoResize"	"0"
			"pinCorner"		"0"
			"visible"		"0"
			"enabled"		"0"
			"wrap"			"1"
			"fgcolor_override" "46 43 42 255"
		}

		"TextLabel"
		{
			"ControlName"	"CExLabel"
			"fieldName"		"TextLabel"
			"font"			"HudFontSmall"
			"labelText"		"#MMenu_NewUserForumHighlight_Text"
			"textAlignment"	"north-west"
			"xpos"			"20"
			"ypos"			"30"
			"wide"			"210"
			"tall"			"90"
			"autoResize"	"0"
			"pinCorner"		"0"
			"visible"		"0"
			"enabled"		"0"
			"wrap"			"1"
			"fgcolor_override" "46 43 42 255"
		}

		"CloseButton"
		{
			"ControlName"	"CExImageButton"
			"fieldName"		"CloseButton"
			"xpos"			"230"
			"ypos"			"5"
			"zpos"			"10"
			"wide"			"14"
			"tall"			"14"
			"autoResize"	"0"
			"pinCorner"		"0"
			"visible"		"1"
			"enabled"		"1"
			"tabPosition"	"0"
			"labeltext"		""
			"font"			"HudFontSmallBold"
			"textAlignment"	"center"
			"dulltext"		"0"
			"brighttext"	"0"
			"default"		"1"
			"sound_depressed"	"UI/buttonclick.wav"
			"sound_released"	"UI/buttonclickrelease.wav"
			"Command"		"close"

			"paintbackground"	"0"

			"defaultFgColor_override" "46 43 42 255"
			"armedFgColor_override" "235 226 202 255"
			"depressedFgColor_override" "46 43 42 255"

			"image_drawcolor"	"117 107 94 255"
			"image_armedcolor"	"200 80 60 255"
			"SubImage"
			{
				"ControlName"	"ImagePanel"
				"fieldName"		"SubImage"
				"xpos"			"0"
				"ypos"			"0"
				"zpos"			"1"
				"wide"			"14"
				"tall"			"14"
				"visible"		"1"
				"enabled"		"1"
				"image"			"close_button"
				"scaleImage"	"1"
			}
		}
	}

	"OptionsHighlightPanel"
	{
		"ControlName"	"CExplanationPopup"
		"fieldName"		"OptionsHighlightPanel"
		"xpos"			"c-55"
		"ypos"			"280"
		"zpos"			"100"
		"wide"			"250"
		"tall"			"120"
		"visible"		"0"
		"PaintBackgroundType"	"2"
		"paintbackground" "0"
		"border"		"MainMenuHighlightBorder"

		"start_x"		"c238"
		"start_y"		"437"
		"start_wide"	"1"
		"start_tall"	"1"
		"end_x"			"c55"
		"end_y"			"280"
		"end_wide"		"250"
		"end_tall"		"120"
		"callout_inparents_x"	"c240"
		"callout_inparents_y"	"437"

		"TitleLabel"
		{
			"ControlName"	"CExLabel"
			"fieldName"		"TitleLabel"
			"font"			"HudFontSmallBold"
			"labelText"		"#MMenu_OptionsHighlightPanel_Title"
			"textAlignment"	"north-west"
			"xpos"			"10"
			"ypos"			"10"
			"wide"			"210"
			"tall"			"20"
			"autoResize"	"0"
			"pinCorner"		"0"
			"visible"		"1"
			"enabled"		"1"
			"wrap"			"1"
			"fgcolor_override" "46 43 42 255"
		}

		"TextLabel"
		{
			"ControlName"	"CExLabel"
			"fieldName"		"TextLabel"
			"font"			"HudFontSmall"
			"labelText"		"#MMenu_OptionsHighlightPanel_Text"
			"textAlignment"	"north-west"
			"xpos"			"20"
			"ypos"			"30"
			"wide"			"210"
			"tall"			"90"
			"autoResize"	"0"
			"pinCorner"		"0"
			"visible"		"1"
			"enabled"		"1"
			"wrap"			"1"
			"fgcolor_override" "46 43 42 255"
		}

		"CloseButton"
		{
			"ControlName"	"CExImageButton"
			"fieldName"		"CloseButton"
			"xpos"			"230"
			"ypos"			"5"
			"zpos"			"10"
			"wide"			"14"
			"tall"			"14"
			"autoResize"	"0"
			"pinCorner"		"0"
			"visible"		"1"
			"enabled"		"1"
			"tabPosition"	"0"
			"labeltext"		""
			"font"			"HudFontSmallBold"
			"textAlignment"	"center"
			"dulltext"		"0"
			"brighttext"	"0"
			"default"		"1"
			"sound_depressed"	"UI/buttonclick.wav"
			"sound_released"	"UI/buttonclickrelease.wav"
			"Command"		"close"

			"paintbackground"	"0"

			"defaultFgColor_override" "46 43 42 255"
			"armedFgColor_override" "235 226 202 255"
			"depressedFgColor_override" "46 43 42 255"

			"image_drawcolor"	"117 107 94 255"
			"image_armedcolor"	"200 80 60 255"
			"SubImage"
			{
				"ControlName"	"ImagePanel"
				"fieldName"		"SubImage"
				"xpos"			"0"
				"ypos"			"0"
				"zpos"			"1"
				"wide"			"14"
				"tall"			"14"
				"visible"		"1"
				"enabled"		"1"
				"image"			"close_button"
				"scaleImage"	"1"
			}
		}
	}

	"LoadoutHighlightPanel"
	{
		"ControlName"	"CExplanationPopup"
		"fieldName"		"LoadoutHighlightPanel"
		"xpos"			"c-55"
		"ypos"			"280"
		"zpos"			"100"
		"wide"			"250"
		"tall"			"120"
		"visible"		"0"
		"PaintBackgroundType"	"2"
		"paintbackground" "0"
		"border"		"MainMenuHighlightBorder"

		"start_x"		"c-190"
		"start_y"		"267"
		"start_wide"	"1"
		"start_tall"	"1"
		"end_x"			"c-125"
		"end_y"			"180"
		"end_wide"		"250"
		"end_tall"		"220"
		"callout_inparents_x"	"c-163"
		"callout_inparents_y"	"267"

		"TitleLabel"
		{
			"ControlName"	"CExLabel"
			"fieldName"		"TitleLabel"
			"font"			"HudFontSmallBold"
			"labelText"		"#MMenu_LoadoutHighlightPanel_Title"
			"textAlignment"	"north-west"
			"xpos"			"10"
			"ypos"			"10"
			"wide"			"210"
			"tall"			"20"
			"autoResize"	"0"
			"pinCorner"		"0"
			"visible"		"1"
			"enabled"		"1"
			"wrap"			"1"
			"fgcolor_override" "46 43 42 255"
		}

		"TextLabel"
		{
			"ControlName"	"CExLabel"
			"fieldName"		"TextLabel"
			"font"			"HudFontSmall"
			"labelText"		"#MMenu_LoadoutHighlightPanel_Text"
			"textAlignment"	"north-west"
			"xpos"			"20"
			"ypos"			"30"
			"wide"			"210"
			"tall"			"190"
			"autoResize"	"0"
			"pinCorner"		"0"
			"visible"		"1"
			"enabled"		"1"
			"wrap"			"1"
			"fgcolor_override" "46 43 42 255"
		}

		"CloseButton"
		{
			"ControlName"	"CExImageButton"
			"fieldName"		"CloseButton"
			"xpos"			"230"
			"ypos"			"5"
			"zpos"			"10"
			"wide"			"14"
			"tall"			"14"
			"autoResize"	"0"
			"pinCorner"		"0"
			"visible"		"1"
			"enabled"		"1"
			"tabPosition"	"0"
			"labeltext"		""
			"font"			"HudFontSmallBold"
			"textAlignment"	"center"
			"dulltext"		"0"
			"brighttext"	"0"
			"default"		"1"
			"sound_depressed"	"UI/buttonclick.wav"
			"sound_released"	"UI/buttonclickrelease.wav"
			"Command"		"close"

			"paintbackground"	"0"

			"defaultFgColor_override" "46 43 42 255"
			"armedFgColor_override" "235 226 202 255"
			"depressedFgColor_override" "46 43 42 255"

			"image_drawcolor"	"117 107 94 255"
			"image_armedcolor"	"200 80 60 255"
			"SubImage"
			{
				"ControlName"	"ImagePanel"
				"fieldName"		"SubImage"
				"xpos"			"0"
				"ypos"			"0"
				"zpos"			"1"
				"wide"			"14"
				"tall"			"14"
				"visible"		"1"
				"enabled"		"1"
				"image"			"close_button"
				"scaleImage"	"1"
			}
		}
	}

	"StoreHighlightPanel"
	{
		"ControlName"	"CExplanationPopup"
		"fieldName"		"StoreHighlightPanel"
		"xpos"			"c0"
		"ypos"			"300"
		"zpos"			"100"
		"wide"			"250"
		"tall"			"60"
		"visible"		"0"
		"PaintBackgroundType"	"2"
		"paintbackground" "0"
		"border"		"MainMenuHighlightBorder"

		"start_x"		"c20"
		"start_y"		"285"
		"start_wide"	"250"
		"start_tall"	"125"
		"end_x"			"c20"
		"end_y"			"285"
		"end_wide"		"250"
		"end_tall"		"125"
		"callout_inparents_x"	"c-40"
		"callout_inparents_y"	"267"

		"TitleLabel"
		{
			"ControlName"	"CExLabel"
			"fieldName"		"TitleLabel"
			"font"			"HudFontSmallBold"
			"labelText"		"#MMenu_StoreHighlightPanel_Title"
			"textAlignment"	"north-west"
			"xpos"			"10"
			"ypos"			"10"
			"wide"			"210"
			"tall"			"20"
			"autoResize"	"0"
			"pinCorner"		"0"
			"visible"		"1"
			"enabled"		"1"
			"wrap"			"1"
			"fgcolor_override" "46 43 42 255"
		}

		"TextLabel"
		{
			"ControlName"	"CExLabel"
			"fieldName"		"TextLabel"
			"font"			"HudFontSmall"
			"labelText"		"%highlighttext%"
			"textAlignment"	"north-west"
			"xpos"			"20"
			"ypos"			"30"
			"wide"			"210"
			"tall"			"190"
			"autoResize"	"0"
			"pinCorner"		"0"
			"visible"		"1"
			"enabled"		"1"
			"wrap"			"1"
			"fgcolor_override" "46 43 42 255"
		}

		"CloseButton"
		{
			"ControlName"	"CExImageButton"
			"fieldName"		"CloseButton"
			"xpos"			"230"
			"ypos"			"5"
			"zpos"			"10"
			"wide"			"14"
			"tall"			"14"
			"autoResize"	"0"
			"pinCorner"		"0"
			"visible"		"1"
			"enabled"		"1"
			"tabPosition"	"0"
			"labeltext"		""
			"font"			"HudFontSmallBold"
			"textAlignment"	"center"
			"dulltext"		"0"
			"brighttext"	"0"
			"default"		"1"
			"sound_depressed"	"UI/buttonclick.wav"
			"sound_released"	"UI/buttonclickrelease.wav"
			"Command"		"close"

			"paintbackground"	"0"

			"defaultFgColor_override" "46 43 42 255"
			"armedFgColor_override" "235 226 202 255"
			"depressedFgColor_override" "46 43 42 255"

			"image_drawcolor"	"117 107 94 255"
			"image_armedcolor"	"200 80 60 255"
			"SubImage"
			{
				"ControlName"	"ImagePanel"
				"fieldName"		"SubImage"
				"xpos"			"0"
				"ypos"			"0"
				"zpos"			"1"
				"wide"			"14"
				"tall"			"14"
				"visible"		"1"
				"enabled"		"1"
				"image"			"close_button"
				"scaleImage"	"1"
			}
		}
	}

}
